#Command: "C:\Program Files (x86)\Microsoft Visual Studio\2019\Community\VC\Tools\MSVC\14.23.28105\bin\HostX86\x64\link.exe" /ERRORREPORT:PROMPT @C:\Users\Jack\AppData\Local\Temp\tmp84c756132fe44a4ba47d045d39adeb35.rsp
^C:\USERS\JACK\DESKTOP\ENGINESIM\STUDIOENGINE\STUDIOENGINE\X64\DEBUG\AUDIOMANAGER.OBJ|C:\USERS\JACK\DESKTOP\ENGINESIM\STUDIOENGINE\STUDIOENGINE\X64\DEBUG\AUDIOSOURCE.OBJ|C:\USERS\JACK\DESKTOP\ENGINESIM\STUDIOENGINE\STUDIOENGINE\X64\DEBUG\BUTTON.OBJ|C:\USERS\JACK\DESKTOP\ENGINESIM\STUDIOENGINE\STUDIOENGINE\X64\DEBUG\CHARATER.OBJ|C:\USERS\JACK\DESKTOP\ENGINESIM\STUDIOENGINE\STUDIOENGINE\X64\DEBUG\DROPLIST.OBJ|C:\USERS\JACK\DESKTOP\ENGINESIM\STUDIOENGINE\STUDIOENGINE\X64\DEBUG\ENGINEMANAGE.OBJ|C:\USERS\JACK\DESKTOP\ENGINESIM\STUDIOENGINE\STUDIOENGINE\X64\DEBUG\ENTITY.OBJ|C:\USERS\JACK\DESKTOP\ENGINESIM\STUDIOENGINE\STUDIOENGINE\X64\DEBUG\GAMEMAIN.OBJ|C:\USERS\JACK\DESKTOP\ENGINESIM\STUDIOENGINE\STUDIOENGINE\X64\DEBUG\GRID.OBJ|C:\USERS\JACK\DESKTOP\ENGINESIM\STUDIOENGINE\STUDIOENGINE\X64\DEBUG\GUNMANAGER.OBJ|C:\USERS\JACK\DESKTOP\ENGINESIM\STUDIOENGINE\STUDIOENGINE\X64\DEBUG\HELP .OBJ|C:\USERS\JACK\DESKTOP\ENGINESIM\STUDIOENGINE\STUDIOENGINE\X64\DEBUG\IMAGESMENU.OBJ|C:\USERS\JACK\DESKTOP\ENGINESIM\STUDIOENGINE\STUDIOENGINE\X64\DEBUG\LOADFROMFILE.OBJ|C:\USERS\JACK\DESKTOP\ENGINESIM\STUDIOENGINE\STUDIOENGINE\X64\DEBUG\MAPMENU.OBJ|C:\USERS\JACK\DESKTOP\ENGINESIM\STUDIOENGINE\STUDIOENGINE\X64\DEBUG\MENUS.OBJ|C:\USERS\JACK\DESKTOP\ENGINESIM\STUDIOENGINE\STUDIOENGINE\X64\DEBUG\MOUSEHANDLER.OBJ|C:\USERS\JACK\DESKTOP\ENGINESIM\STUDIOENGINE\STUDIOENGINE\X64\DEBUG\MOVEMENT.OBJ|C:\USERS\JACK\DESKTOP\ENGINESIM\STUDIOENGINE\STUDIOENGINE\X64\DEBUG\NPC.OBJ|C:\USERS\JACK\DESKTOP\ENGINESIM\STUDIOENGINE\STUDIOENGINE\X64\DEBUG\OBJECT.OBJ|C:\USERS\JACK\DESKTOP\ENGINESIM\STUDIOENGINE\STUDIOENGINE\X64\DEBUG\OBJECTLISTMENU.OBJ|C:\USERS\JACK\DESKTOP\ENGINESIM\STUDIOENGINE\STUDIOENGINE\X64\DEBUG\OBJECTSONSCREEN.OBJ|C:\USERS\JACK\DESKTOP\ENGINESIM\STUDIOENGINE\STUDIOENGINE\X64\DEBUG\PLAYER.OBJ|C:\USERS\JACK\DESKTOP\ENGINESIM\STUDIOENGINE\STUDIOENGINE\X64\DEBUG\RENDERER.OBJ|C:\USERS\JACK\DESKTOP\ENGINESIM\STUDIOENGINE\STUDIOENGINE\X64\DEBUG\SELECTEDMENU.OBJ|C:\USERS\JACK\DESKTOP\ENGINESIM\STUDIOENGINE\STUDIOENGINE\X64\DEBUG\SOUND.OBJ|C:\USERS\JACK\DESKTOP\ENGINESIM\STUDIOENGINE\STUDIOENGINE\X64\DEBUG\SPRITE.OBJ|C:\USERS\JACK\DESKTOP\ENGINESIM\STUDIOENGINE\STUDIOENGINE\X64\DEBUG\STUDIOENGINE.OBJ|C:\USERS\JACK\DESKTOP\ENGINESIM\STUDIOENGINE\STUDIOENGINE\X64\DEBUG\TEXTBOX.OBJ|C:\USERS\JACK\DESKTOP\ENGINESIM\STUDIOENGINE\STUDIOENGINE\X64\DEBUG\TILE.OBJ|C:\USERS\JACK\DESKTOP\ENGINESIM\STUDIOENGINE\STUDIOENGINE\X64\DEBUG\TILEMAP.OBJ|C:\USERS\JACK\DESKTOP\ENGINESIM\STUDIOENGINE\STUDIOENGINE\X64\DEBUG\UNDOCONTROLLER.OBJ|C:\USERS\JACK\DESKTOP\ENGINESIM\STUDIOENGINE\STUDIOENGINE\X64\DEBUG\WAVE.OBJ|C:\USERS\JACK\DESKTOP\ENGINESIM\STUDIOENGINE\STUDIOENGINE\X64\DEBUG\ZOMBIE.OBJ|C:\USERS\JACK\DESKTOP\ENGINESIM\STUDIOENGINE\STUDIOENGINE\X64\DEBUG\ZOMBIEGAME.OBJ
C:\USERS\JACK\DESKTOP\ENGINESIM\STUDIOENGINE\X64\DEBUG\STUDIOENGINE.PDB
