SPRITE :dirtTile.PNG
POS :(0,32)
SCALE :0.59

SPRITE :dirtTile.PNG
POS :(0,69)
SCALE :0.59

SPRITE :dirtTile.PNG
POS :(0,106)
SCALE :0.59

SPRITE :dirtTile.PNG
POS :(0,143)
SCALE :0.59

SPRITE :dirtTile.PNG
POS :(0,180)
SCALE :0.59

SPRITE :dirtTile.PNG
POS :(0,217)
SCALE :0.59

SPRITE :dirtTile.PNG
POS :(0,254)
SCALE :0.59

SPRITE :dirtTile.PNG
POS :(0,291)
SCALE :0.59

SPRITE :dirtTile.PNG
POS :(0,328)
SCALE :0.59

SPRITE :dirtTile.PNG
POS :(0,365)
SCALE :0.59

SPRITE :dirtTile.PNG
POS :(0,402)
SCALE :0.59

SPRITE :dirtTile.PNG
POS :(0,439)
SCALE :0.59

SPRITE :dirtTile.PNG
POS :(0,476)
SCALE :0.59

SPRITE :dirtTile.PNG
POS :(0,513)
SCALE :0.59

SPRITE :dirtTile.PNG
POS :(0,550)
SCALE :0.59

SPRITE :dirtTile.PNG
POS :(0,587)
SCALE :0.59

SPRITE :dirtTile.PNG
POS :(0,624)
SCALE :0.59

SPRITE :dirtTile.PNG
POS :(0,661)
SCALE :0.59

SPRITE :dirtTile.PNG
POS :(0,698)
SCALE :0.59

SPRITE :dirtTile.PNG
POS :(0,735)
SCALE :0.59

SPRITE :dirtTile.PNG
POS :(0,772)
SCALE :0.59

SPRITE :dirtTile.PNG
POS :(0,809)
SCALE :0.59

SPRITE :dirtTile.PNG
POS :(0,846)
SCALE :0.59

SPRITE :dirtTile.PNG
POS :(0,883)
SCALE :0.59

SPRITE :dirtTile.PNG
POS :(0,920)
SCALE :0.59

SPRITE :dirtTile.PNG
POS :(0,957)
SCALE :0.59

SPRITE :dirtTile.PNG
POS :(0,994)
SCALE :0.59

SPRITE :dirtTile.PNG
POS :(0,1031)
SCALE :0.59

SPRITE :dirtTile.PNG
POS :(0,1068)
SCALE :0.59

SPRITE :dirtTile.PNG
POS :(37,32)
SCALE :0.59

SPRITE :dirtTile.PNG
POS :(37,69)
SCALE :0.59

SPRITE :dirtTile.PNG
POS :(37,106)
SCALE :0.59

SPRITE :dirtTile.PNG
POS :(37,143)
SCALE :0.59

SPRITE :dirtTile.PNG
POS :(37,180)
SCALE :0.59

SPRITE :dirtTile.PNG
POS :(37,217)
SCALE :0.59

SPRITE :dirtTile.PNG
POS :(37,254)
SCALE :0.59

SPRITE :dirtTile.PNG
POS :(37,291)
SCALE :0.59

SPRITE :dirtTile.PNG
POS :(37,328)
SCALE :0.59

SPRITE :dirtTile.PNG
POS :(37,365)
SCALE :0.59

SPRITE :dirtTile.PNG
POS :(37,402)
SCALE :0.59

SPRITE :dirtTile.PNG
POS :(37,439)
SCALE :0.59

SPRITE :dirtTile.PNG
POS :(37,476)
SCALE :0.59

SPRITE :dirtTile.PNG
POS :(37,513)
SCALE :0.59

SPRITE :dirtTile.PNG
POS :(37,550)
SCALE :0.59

SPRITE :dirtTile.PNG
POS :(37,587)
SCALE :0.59

SPRITE :dirtTile.PNG
POS :(37,624)
SCALE :0.59

SPRITE :dirtTile.PNG
POS :(37,661)
SCALE :0.59

SPRITE :dirtTile.PNG
POS :(37,698)
SCALE :0.59

SPRITE :dirtTile.PNG
POS :(37,735)
SCALE :0.59

SPRITE :dirtTile.PNG
POS :(37,772)
SCALE :0.59

SPRITE :dirtTile.PNG
POS :(37,809)
SCALE :0.59

SPRITE :dirtTile.PNG
POS :(37,846)
SCALE :0.59

SPRITE :dirtTile.PNG
POS :(37,883)
SCALE :0.59

SPRITE :dirtTile.PNG
POS :(37,920)
SCALE :0.59

SPRITE :dirtTile.PNG
POS :(37,957)
SCALE :0.59

SPRITE :dirtTile.PNG
POS :(37,994)
SCALE :0.59

SPRITE :dirtTile.PNG
POS :(37,1031)
SCALE :0.59

SPRITE :dirtTile.PNG
POS :(37,1068)
SCALE :0.59

SPRITE :dirtTile.PNG
POS :(74,32)
SCALE :0.59

SPRITE :dirtTile.PNG
POS :(74,69)
SCALE :0.59

SPRITE :dirtTile.PNG
POS :(74,106)
SCALE :0.59

SPRITE :dirtTile.PNG
POS :(74,143)
SCALE :0.59

SPRITE :dirtTile.PNG
POS :(74,180)
SCALE :0.59

SPRITE :dirtTile.PNG
POS :(74,217)
SCALE :0.59

SPRITE :dirtTile.PNG
POS :(74,254)
SCALE :0.59

SPRITE :dirtTile.PNG
POS :(74,291)
SCALE :0.59

SPRITE :dirtTile.PNG
POS :(74,328)
SCALE :0.59

SPRITE :dirtTile.PNG
POS :(74,365)
SCALE :0.59

SPRITE :dirtTile.PNG
POS :(74,402)
SCALE :0.59

SPRITE :dirtTile.PNG
POS :(74,439)
SCALE :0.59

SPRITE :dirtTile.PNG
POS :(74,476)
SCALE :0.59

SPRITE :dirtTile.PNG
POS :(74,513)
SCALE :0.59

SPRITE :dirtTile.PNG
POS :(74,550)
SCALE :0.59

SPRITE :dirtTile.PNG
POS :(74,587)
SCALE :0.59

SPRITE :dirtTile.PNG
POS :(74,624)
SCALE :0.59

SPRITE :dirtTile.PNG
POS :(74,661)
SCALE :0.59

SPRITE :dirtTile.PNG
POS :(74,698)
SCALE :0.59

SPRITE :dirtTile.PNG
POS :(74,735)
SCALE :0.59

SPRITE :dirtTile.PNG
POS :(74,772)
SCALE :0.59

SPRITE :dirtTile.PNG
POS :(74,809)
SCALE :0.59

SPRITE :dirtTile.PNG
POS :(74,846)
SCALE :0.59

SPRITE :dirtTile.PNG
POS :(74,883)
SCALE :0.59

SPRITE :dirtTile.PNG
POS :(74,920)
SCALE :0.59

SPRITE :dirtTile.PNG
POS :(74,957)
SCALE :0.59

SPRITE :dirtTile.PNG
POS :(74,994)
SCALE :0.59

SPRITE :dirtTile.PNG
POS :(74,1031)
SCALE :0.59

SPRITE :dirtTile.PNG
POS :(74,1068)
SCALE :0.59

SPRITE :dirtTile.PNG
POS :(111,32)
SCALE :0.59

SPRITE :dirtTile.PNG
POS :(111,69)
SCALE :0.59

SPRITE :dirtTile.PNG
POS :(111,106)
SCALE :0.59

SPRITE :dirtTile.PNG
POS :(111,143)
SCALE :0.59

SPRITE :dirtTile.PNG
POS :(111,180)
SCALE :0.59

SPRITE :dirtTile.PNG
POS :(111,217)
SCALE :0.59

SPRITE :dirtTile.PNG
POS :(111,254)
SCALE :0.59

SPRITE :dirtTile.PNG
POS :(111,291)
SCALE :0.59

SPRITE :dirtTile.PNG
POS :(111,328)
SCALE :0.59

SPRITE :dirtTile.PNG
POS :(111,365)
SCALE :0.59

SPRITE :dirtTile.PNG
POS :(111,402)
SCALE :0.59

SPRITE :dirtTile.PNG
POS :(111,439)
SCALE :0.59

SPRITE :dirtTile.PNG
POS :(111,476)
SCALE :0.59

SPRITE :dirtTile.PNG
POS :(111,513)
SCALE :0.59

SPRITE :dirtTile.PNG
POS :(111,550)
SCALE :0.59

SPRITE :dirtTile.PNG
POS :(111,587)
SCALE :0.59

SPRITE :dirtTile.PNG
POS :(111,624)
SCALE :0.59

SPRITE :dirtTile.PNG
POS :(111,661)
SCALE :0.59

SPRITE :dirtTile.PNG
POS :(111,698)
SCALE :0.59

SPRITE :dirtTile.PNG
POS :(111,735)
SCALE :0.59

SPRITE :dirtTile.PNG
POS :(111,772)
SCALE :0.59

SPRITE :dirtTile.PNG
POS :(111,809)
SCALE :0.59

SPRITE :dirtTile.PNG
POS :(111,846)
SCALE :0.59

SPRITE :dirtTile.PNG
POS :(111,883)
SCALE :0.59

SPRITE :dirtTile.PNG
POS :(111,920)
SCALE :0.59

SPRITE :dirtTile.PNG
POS :(111,957)
SCALE :0.59

SPRITE :dirtTile.PNG
POS :(111,994)
SCALE :0.59

SPRITE :dirtTile.PNG
POS :(111,1031)
SCALE :0.59

SPRITE :dirtTile.PNG
POS :(111,1068)
SCALE :0.59

SPRITE :dirtTile.PNG
POS :(148,32)
SCALE :0.59

SPRITE :dirtTile.PNG
POS :(148,69)
SCALE :0.59

SPRITE :dirtTile.PNG
POS :(148,106)
SCALE :0.59

SPRITE :dirtTile.PNG
POS :(148,143)
SCALE :0.59

SPRITE :dirtTile.PNG
POS :(148,180)
SCALE :0.59

SPRITE :dirtTile.PNG
POS :(148,217)
SCALE :0.59

SPRITE :dirtTile.PNG
POS :(148,254)
SCALE :0.59

SPRITE :dirtTile.PNG
POS :(148,291)
SCALE :0.59

SPRITE :dirtTile.PNG
POS :(148,328)
SCALE :0.59

SPRITE :dirtTile.PNG
POS :(148,365)
SCALE :0.59

SPRITE :dirtTile.PNG
POS :(148,402)
SCALE :0.59

SPRITE :dirtTile.PNG
POS :(148,439)
SCALE :0.59

SPRITE :dirtTile.PNG
POS :(148,476)
SCALE :0.59

SPRITE :dirtTile.PNG
POS :(148,513)
SCALE :0.59

SPRITE :dirtTile.PNG
POS :(148,550)
SCALE :0.59

SPRITE :dirtTile.PNG
POS :(148,587)
SCALE :0.59

SPRITE :dirtTile.PNG
POS :(148,624)
SCALE :0.59

SPRITE :dirtTile.PNG
POS :(148,661)
SCALE :0.59

SPRITE :dirtTile.PNG
POS :(148,698)
SCALE :0.59

SPRITE :dirtTile.PNG
POS :(148,735)
SCALE :0.59

SPRITE :dirtTile.PNG
POS :(148,772)
SCALE :0.59

SPRITE :dirtTile.PNG
POS :(148,809)
SCALE :0.59

SPRITE :dirtTile.PNG
POS :(148,846)
SCALE :0.59

SPRITE :dirtTile.PNG
POS :(148,883)
SCALE :0.59

SPRITE :dirtTile.PNG
POS :(148,920)
SCALE :0.59

SPRITE :dirtTile.PNG
POS :(148,957)
SCALE :0.59

SPRITE :dirtTile.PNG
POS :(148,994)
SCALE :0.59

SPRITE :dirtTile.PNG
POS :(148,1031)
SCALE :0.59

SPRITE :dirtTile.PNG
POS :(148,1068)
SCALE :0.59

SPRITE :dirtTile.PNG
POS :(185,32)
SCALE :0.59

SPRITE :dirtTile.PNG
POS :(185,69)
SCALE :0.59

SPRITE :dirtTile.PNG
POS :(185,106)
SCALE :0.59

SPRITE :dirtTile.PNG
POS :(185,143)
SCALE :0.59

SPRITE :dirtTile.PNG
POS :(185,180)
SCALE :0.59

SPRITE :dirtTile.PNG
POS :(185,217)
SCALE :0.59

SPRITE :dirtTile.PNG
POS :(185,254)
SCALE :0.59

SPRITE :dirtTile.PNG
POS :(185,291)
SCALE :0.59

SPRITE :dirtTile.PNG
POS :(185,328)
SCALE :0.59

SPRITE :dirtTile.PNG
POS :(185,365)
SCALE :0.59

SPRITE :dirtTile.PNG
POS :(185,402)
SCALE :0.59

SPRITE :dirtTile.PNG
POS :(185,439)
SCALE :0.59

SPRITE :dirtTile.PNG
POS :(185,476)
SCALE :0.59

SPRITE :dirtTile.PNG
POS :(185,513)
SCALE :0.59

SPRITE :dirtTile.PNG
POS :(185,550)
SCALE :0.59

SPRITE :dirtTile.PNG
POS :(185,587)
SCALE :0.59

SPRITE :dirtTile.PNG
POS :(185,624)
SCALE :0.59

SPRITE :dirtTile.PNG
POS :(185,661)
SCALE :0.59

SPRITE :dirtTile.PNG
POS :(185,698)
SCALE :0.59

SPRITE :dirtTile.PNG
POS :(185,735)
SCALE :0.59

SPRITE :dirtTile.PNG
POS :(185,772)
SCALE :0.59

SPRITE :dirtTile.PNG
POS :(185,809)
SCALE :0.59

SPRITE :dirtTile.PNG
POS :(185,846)
SCALE :0.59

SPRITE :dirtTile.PNG
POS :(185,883)
SCALE :0.59

SPRITE :dirtTile.PNG
POS :(185,920)
SCALE :0.59

SPRITE :dirtTile.PNG
POS :(185,957)
SCALE :0.59

SPRITE :dirtTile.PNG
POS :(185,994)
SCALE :0.59

SPRITE :dirtTile.PNG
POS :(185,1031)
SCALE :0.59

SPRITE :dirtTile.PNG
POS :(185,1068)
SCALE :0.59

SPRITE :dirtTile.PNG
POS :(222,32)
SCALE :0.59

SPRITE :dirtTile.PNG
POS :(222,69)
SCALE :0.59

SPRITE :dirtTile.PNG
POS :(222,106)
SCALE :0.59

SPRITE :dirtTile.PNG
POS :(222,143)
SCALE :0.59

SPRITE :dirtTile.PNG
POS :(222,180)
SCALE :0.59

SPRITE :dirtTile.PNG
POS :(222,217)
SCALE :0.59

SPRITE :dirtTile.PNG
POS :(222,254)
SCALE :0.59

SPRITE :dirtTile.PNG
POS :(222,291)
SCALE :0.59

SPRITE :dirtTile.PNG
POS :(222,328)
SCALE :0.59

SPRITE :dirtTile.PNG
POS :(222,365)
SCALE :0.59

SPRITE :dirtTile.PNG
POS :(222,402)
SCALE :0.59

SPRITE :dirtTile.PNG
POS :(222,439)
SCALE :0.59

SPRITE :dirtTile.PNG
POS :(222,476)
SCALE :0.59

SPRITE :dirtTile.PNG
POS :(222,513)
SCALE :0.59

SPRITE :dirtTile.PNG
POS :(222,550)
SCALE :0.59

SPRITE :dirtTile.PNG
POS :(222,587)
SCALE :0.59

SPRITE :dirtTile.PNG
POS :(222,624)
SCALE :0.59

SPRITE :dirtTile.PNG
POS :(222,661)
SCALE :0.59

SPRITE :dirtTile.PNG
POS :(222,698)
SCALE :0.59

SPRITE :dirtTile.PNG
POS :(222,735)
SCALE :0.59

SPRITE :dirtTile.PNG
POS :(222,772)
SCALE :0.59

SPRITE :dirtTile.PNG
POS :(222,809)
SCALE :0.59

SPRITE :dirtTile.PNG
POS :(222,846)
SCALE :0.59

SPRITE :dirtTile.PNG
POS :(222,883)
SCALE :0.59

SPRITE :dirtTile.PNG
POS :(222,920)
SCALE :0.59

SPRITE :dirtTile.PNG
POS :(222,957)
SCALE :0.59

SPRITE :dirtTile.PNG
POS :(222,994)
SCALE :0.59

SPRITE :dirtTile.PNG
POS :(222,1031)
SCALE :0.59

SPRITE :dirtTile.PNG
POS :(222,1068)
SCALE :0.59

SPRITE :dirtTile.PNG
POS :(259,32)
SCALE :0.59

SPRITE :dirtTile.PNG
POS :(259,69)
SCALE :0.59

SPRITE :dirtTile.PNG
POS :(259,106)
SCALE :0.59

SPRITE :dirtTile.PNG
POS :(259,143)
SCALE :0.59

SPRITE :dirtTile.PNG
POS :(259,180)
SCALE :0.59

SPRITE :dirtTile.PNG
POS :(259,217)
SCALE :0.59

SPRITE :dirtTile.PNG
POS :(259,254)
SCALE :0.59

SPRITE :dirtTile.PNG
POS :(259,291)
SCALE :0.59

SPRITE :dirtTile.PNG
POS :(259,328)
SCALE :0.59

SPRITE :dirtTile.PNG
POS :(259,365)
SCALE :0.59

SPRITE :dirtTile.PNG
POS :(259,402)
SCALE :0.59

SPRITE :dirtTile.PNG
POS :(259,439)
SCALE :0.59

SPRITE :dirtTile.PNG
POS :(259,476)
SCALE :0.59

SPRITE :dirtTile.PNG
POS :(259,513)
SCALE :0.59

SPRITE :dirtTile.PNG
POS :(259,550)
SCALE :0.59

SPRITE :dirtTile.PNG
POS :(259,587)
SCALE :0.59

SPRITE :dirtTile.PNG
POS :(259,624)
SCALE :0.59

SPRITE :dirtTile.PNG
POS :(259,661)
SCALE :0.59

SPRITE :dirtTile.PNG
POS :(259,698)
SCALE :0.59

SPRITE :dirtTile.PNG
POS :(259,735)
SCALE :0.59

SPRITE :dirtTile.PNG
POS :(259,772)
SCALE :0.59

SPRITE :dirtTile.PNG
POS :(259,809)
SCALE :0.59

SPRITE :dirtTile.PNG
POS :(259,846)
SCALE :0.59

SPRITE :dirtTile.PNG
POS :(259,883)
SCALE :0.59

SPRITE :dirtTile.PNG
POS :(259,920)
SCALE :0.59

SPRITE :dirtTile.PNG
POS :(259,957)
SCALE :0.59

SPRITE :dirtTile.PNG
POS :(259,994)
SCALE :0.59

SPRITE :dirtTile.PNG
POS :(259,1031)
SCALE :0.59

SPRITE :dirtTile.PNG
POS :(259,1068)
SCALE :0.59

SPRITE :dirtTile.PNG
POS :(296,32)
SCALE :0.59

SPRITE :dirtTile.PNG
POS :(296,69)
SCALE :0.59

SPRITE :dirtTile.PNG
POS :(296,106)
SCALE :0.59

SPRITE :dirtTile.PNG
POS :(296,143)
SCALE :0.59

SPRITE :dirtTile.PNG
POS :(296,180)
SCALE :0.59

SPRITE :dirtTile.PNG
POS :(296,217)
SCALE :0.59

SPRITE :dirtTile.PNG
POS :(296,254)
SCALE :0.59

SPRITE :dirtTile.PNG
POS :(296,291)
SCALE :0.59

SPRITE :dirtTile.PNG
POS :(296,328)
SCALE :0.59

SPRITE :dirtTile.PNG
POS :(296,365)
SCALE :0.59

SPRITE :dirtTile.PNG
POS :(296,402)
SCALE :0.59

SPRITE :dirtTile.PNG
POS :(296,439)
SCALE :0.59

SPRITE :dirtTile.PNG
POS :(296,476)
SCALE :0.59

SPRITE :dirtTile.PNG
POS :(296,513)
SCALE :0.59

SPRITE :dirtTile.PNG
POS :(296,550)
SCALE :0.59

SPRITE :dirtTile.PNG
POS :(296,587)
SCALE :0.59

SPRITE :dirtTile.PNG
POS :(296,624)
SCALE :0.59

SPRITE :dirtTile.PNG
POS :(296,661)
SCALE :0.59

SPRITE :dirtTile.PNG
POS :(296,698)
SCALE :0.59

SPRITE :dirtTile.PNG
POS :(296,735)
SCALE :0.59

SPRITE :dirtTile.PNG
POS :(296,772)
SCALE :0.59

SPRITE :dirtTile.PNG
POS :(296,809)
SCALE :0.59

SPRITE :dirtTile.PNG
POS :(296,846)
SCALE :0.59

SPRITE :dirtTile.PNG
POS :(296,883)
SCALE :0.59

SPRITE :dirtTile.PNG
POS :(296,920)
SCALE :0.59

SPRITE :dirtTile.PNG
POS :(296,957)
SCALE :0.59

SPRITE :dirtTile.PNG
POS :(296,994)
SCALE :0.59

SPRITE :dirtTile.PNG
POS :(296,1031)
SCALE :0.59

SPRITE :dirtTile.PNG
POS :(296,1068)
SCALE :0.59

SPRITE :dirtTile.PNG
POS :(333,32)
SCALE :0.59

SPRITE :dirtTile.PNG
POS :(333,69)
SCALE :0.59

SPRITE :dirtTile.PNG
POS :(333,106)
SCALE :0.59

SPRITE :dirtTile.PNG
POS :(333,143)
SCALE :0.59

SPRITE :dirtTile.PNG
POS :(333,180)
SCALE :0.59

SPRITE :dirtTile.PNG
POS :(333,217)
SCALE :0.59

SPRITE :dirtTile.PNG
POS :(333,254)
SCALE :0.59

SPRITE :dirtTile.PNG
POS :(333,291)
SCALE :0.59

SPRITE :dirtTile.PNG
POS :(333,328)
SCALE :0.59

SPRITE :dirtTile.PNG
POS :(333,365)
SCALE :0.59

SPRITE :dirtTile.PNG
POS :(333,402)
SCALE :0.59

SPRITE :dirtTile.PNG
POS :(333,439)
SCALE :0.59

SPRITE :dirtTile.PNG
POS :(333,476)
SCALE :0.59

SPRITE :dirtTile.PNG
POS :(333,513)
SCALE :0.59

SPRITE :dirtTile.PNG
POS :(333,550)
SCALE :0.59

SPRITE :dirtTile.PNG
POS :(333,587)
SCALE :0.59

SPRITE :dirtTile.PNG
POS :(333,624)
SCALE :0.59

SPRITE :dirtTile.PNG
POS :(333,661)
SCALE :0.59

SPRITE :dirtTile.PNG
POS :(333,698)
SCALE :0.59

SPRITE :dirtTile.PNG
POS :(333,735)
SCALE :0.59

SPRITE :dirtTile.PNG
POS :(333,772)
SCALE :0.59

SPRITE :dirtTile.PNG
POS :(333,809)
SCALE :0.59

SPRITE :dirtTile.PNG
POS :(333,846)
SCALE :0.59

SPRITE :dirtTile.PNG
POS :(333,883)
SCALE :0.59

SPRITE :dirtTile.PNG
POS :(333,920)
SCALE :0.59

SPRITE :dirtTile.PNG
POS :(333,957)
SCALE :0.59

SPRITE :dirtTile.PNG
POS :(333,994)
SCALE :0.59

SPRITE :dirtTile.PNG
POS :(333,1031)
SCALE :0.59

SPRITE :dirtTile.PNG
POS :(333,1068)
SCALE :0.59

SPRITE :dirtTile.PNG
POS :(370,32)
SCALE :0.59

SPRITE :dirtTile.PNG
POS :(370,69)
SCALE :0.59

SPRITE :dirtTile.PNG
POS :(370,106)
SCALE :0.59

SPRITE :dirtTile.PNG
POS :(370,143)
SCALE :0.59

SPRITE :dirtTile.PNG
POS :(370,180)
SCALE :0.59

SPRITE :dirtTile.PNG
POS :(370,217)
SCALE :0.59

SPRITE :dirtTile.PNG
POS :(370,254)
SCALE :0.59

SPRITE :dirtTile.PNG
POS :(370,291)
SCALE :0.59

SPRITE :dirtTile.PNG
POS :(370,328)
SCALE :0.59

SPRITE :dirtTile.PNG
POS :(370,365)
SCALE :0.59

SPRITE :dirtTile.PNG
POS :(370,402)
SCALE :0.59

SPRITE :dirtTile.PNG
POS :(370,439)
SCALE :0.59

SPRITE :dirtTile.PNG
POS :(370,476)
SCALE :0.59

SPRITE :dirtTile.PNG
POS :(370,513)
SCALE :0.59

SPRITE :dirtTile.PNG
POS :(370,550)
SCALE :0.59

SPRITE :dirtTile.PNG
POS :(370,587)
SCALE :0.59

SPRITE :dirtTile.PNG
POS :(370,624)
SCALE :0.59

SPRITE :dirtTile.PNG
POS :(370,661)
SCALE :0.59

SPRITE :dirtTile.PNG
POS :(370,698)
SCALE :0.59

SPRITE :dirtTile.PNG
POS :(370,735)
SCALE :0.59

SPRITE :dirtTile.PNG
POS :(370,772)
SCALE :0.59

SPRITE :dirtTile.PNG
POS :(370,809)
SCALE :0.59

SPRITE :dirtTile.PNG
POS :(370,846)
SCALE :0.59

SPRITE :dirtTile.PNG
POS :(370,883)
SCALE :0.59

SPRITE :dirtTile.PNG
POS :(370,920)
SCALE :0.59

SPRITE :dirtTile.PNG
POS :(370,957)
SCALE :0.59

SPRITE :dirtTile.PNG
POS :(370,994)
SCALE :0.59

SPRITE :dirtTile.PNG
POS :(370,1031)
SCALE :0.59

SPRITE :dirtTile.PNG
POS :(370,1068)
SCALE :0.59

SPRITE :dirtTile.PNG
POS :(407,32)
SCALE :0.59

SPRITE :dirtTile.PNG
POS :(407,69)
SCALE :0.59

SPRITE :dirtTile.PNG
POS :(407,106)
SCALE :0.59

SPRITE :dirtTile.PNG
POS :(407,143)
SCALE :0.59

SPRITE :dirtTile.PNG
POS :(407,180)
SCALE :0.59

SPRITE :dirtTile.PNG
POS :(407,217)
SCALE :0.59

SPRITE :dirtTile.PNG
POS :(407,254)
SCALE :0.59

SPRITE :dirtTile.PNG
POS :(407,291)
SCALE :0.59

SPRITE :dirtTile.PNG
POS :(407,328)
SCALE :0.59

SPRITE :dirtTile.PNG
POS :(407,365)
SCALE :0.59

SPRITE :dirtTile.PNG
POS :(407,402)
SCALE :0.59

SPRITE :dirtTile.PNG
POS :(407,439)
SCALE :0.59

SPRITE :dirtTile.PNG
POS :(407,476)
SCALE :0.59

SPRITE :dirtTile.PNG
POS :(407,513)
SCALE :0.59

SPRITE :dirtTile.PNG
POS :(407,550)
SCALE :0.59

SPRITE :dirtTile.PNG
POS :(407,587)
SCALE :0.59

SPRITE :dirtTile.PNG
POS :(407,624)
SCALE :0.59

SPRITE :dirtTile.PNG
POS :(407,661)
SCALE :0.59

SPRITE :dirtTile.PNG
POS :(407,698)
SCALE :0.59

SPRITE :dirtTile.PNG
POS :(407,735)
SCALE :0.59

SPRITE :dirtTile.PNG
POS :(407,772)
SCALE :0.59

SPRITE :dirtTile.PNG
POS :(407,809)
SCALE :0.59

SPRITE :dirtTile.PNG
POS :(407,846)
SCALE :0.59

SPRITE :dirtTile.PNG
POS :(407,883)
SCALE :0.59

SPRITE :dirtTile.PNG
POS :(407,920)
SCALE :0.59

SPRITE :dirtTile.PNG
POS :(407,957)
SCALE :0.59

SPRITE :dirtTile.PNG
POS :(407,994)
SCALE :0.59

SPRITE :dirtTile.PNG
POS :(407,1031)
SCALE :0.59

SPRITE :dirtTile.PNG
POS :(407,1068)
SCALE :0.59

SPRITE :dirtTile.PNG
POS :(444,32)
SCALE :0.59

SPRITE :dirtTile.PNG
POS :(444,69)
SCALE :0.59

SPRITE :dirtTile.PNG
POS :(444,106)
SCALE :0.59

SPRITE :dirtTile.PNG
POS :(444,143)
SCALE :0.59

SPRITE :dirtTile.PNG
POS :(444,180)
SCALE :0.59

SPRITE :dirtTile.PNG
POS :(444,217)
SCALE :0.59

SPRITE :dirtTile.PNG
POS :(444,254)
SCALE :0.59

SPRITE :dirtTile.PNG
POS :(444,291)
SCALE :0.59

SPRITE :grassTile.png
POS :(444,328)
SCALE :0.59

SPRITE :grassTile.png
POS :(444,365)
SCALE :0.59

SPRITE :grassTile.png
POS :(444,402)
SCALE :0.59

SPRITE :grassTile.png
POS :(444,439)
SCALE :0.59

SPRITE :dirtTile.PNG
POS :(444,476)
SCALE :0.59

SPRITE :dirtTile.PNG
POS :(444,513)
SCALE :0.59

SPRITE :dirtTile.PNG
POS :(444,550)
SCALE :0.59

SPRITE :dirtTile.PNG
POS :(444,587)
SCALE :0.59

SPRITE :dirtTile.PNG
POS :(444,624)
SCALE :0.59

SPRITE :dirtTile.PNG
POS :(444,661)
SCALE :0.59

SPRITE :dirtTile.PNG
POS :(444,698)
SCALE :0.59

SPRITE :dirtTile.PNG
POS :(444,735)
SCALE :0.59

SPRITE :dirtTile.PNG
POS :(444,772)
SCALE :0.59

SPRITE :dirtTile.PNG
POS :(444,809)
SCALE :0.59

SPRITE :dirtTile.PNG
POS :(444,846)
SCALE :0.59

SPRITE :dirtTile.PNG
POS :(444,883)
SCALE :0.59

SPRITE :dirtTile.PNG
POS :(444,920)
SCALE :0.59

SPRITE :dirtTile.PNG
POS :(444,957)
SCALE :0.59

SPRITE :dirtTile.PNG
POS :(444,994)
SCALE :0.59

SPRITE :dirtTile.PNG
POS :(444,1031)
SCALE :0.59

SPRITE :dirtTile.PNG
POS :(444,1068)
SCALE :0.59

SPRITE :dirtTile.PNG
POS :(481,32)
SCALE :0.59

SPRITE :dirtTile.PNG
POS :(481,69)
SCALE :0.59

SPRITE :dirtTile.PNG
POS :(481,106)
SCALE :0.59

SPRITE :dirtTile.PNG
POS :(481,143)
SCALE :0.59

SPRITE :dirtTile.PNG
POS :(481,180)
SCALE :0.59

SPRITE :dirtTile.PNG
POS :(481,217)
SCALE :0.59

SPRITE :dirtTile.PNG
POS :(481,254)
SCALE :0.59

SPRITE :dirtTile.PNG
POS :(481,291)
SCALE :0.59

SPRITE :dirtTile.PNG
POS :(481,328)
SCALE :0.59

SPRITE :dirtTile.PNG
POS :(481,365)
SCALE :0.59

SPRITE :dirtTile.PNG
POS :(481,402)
SCALE :0.59

SPRITE :grassTile.png
POS :(481,439)
SCALE :0.59

SPRITE :dirtTile.PNG
POS :(481,476)
SCALE :0.59

SPRITE :dirtTile.PNG
POS :(481,513)
SCALE :0.59

SPRITE :dirtTile.PNG
POS :(481,550)
SCALE :0.59

SPRITE :dirtTile.PNG
POS :(481,587)
SCALE :0.59

SPRITE :dirtTile.PNG
POS :(481,624)
SCALE :0.59

SPRITE :dirtTile.PNG
POS :(481,661)
SCALE :0.59

SPRITE :dirtTile.PNG
POS :(481,698)
SCALE :0.59

SPRITE :dirtTile.PNG
POS :(481,735)
SCALE :0.59

SPRITE :dirtTile.PNG
POS :(481,772)
SCALE :0.59

SPRITE :dirtTile.PNG
POS :(481,809)
SCALE :0.59

SPRITE :dirtTile.PNG
POS :(481,846)
SCALE :0.59

SPRITE :dirtTile.PNG
POS :(481,883)
SCALE :0.59

SPRITE :dirtTile.PNG
POS :(481,920)
SCALE :0.59

SPRITE :dirtTile.PNG
POS :(481,957)
SCALE :0.59

SPRITE :dirtTile.PNG
POS :(481,994)
SCALE :0.59

SPRITE :dirtTile.PNG
POS :(481,1031)
SCALE :0.59

SPRITE :dirtTile.PNG
POS :(481,1068)
SCALE :0.59

SPRITE :dirtTile.PNG
POS :(518,32)
SCALE :0.59

SPRITE :dirtTile.PNG
POS :(518,69)
SCALE :0.59

SPRITE :dirtTile.PNG
POS :(518,106)
SCALE :0.59

SPRITE :dirtTile.PNG
POS :(518,143)
SCALE :0.59

SPRITE :dirtTile.PNG
POS :(518,180)
SCALE :0.59

SPRITE :dirtTile.PNG
POS :(518,217)
SCALE :0.59

SPRITE :dirtTile.PNG
POS :(518,254)
SCALE :0.59

SPRITE :dirtTile.PNG
POS :(518,291)
SCALE :0.59

SPRITE :dirtTile.PNG
POS :(518,328)
SCALE :0.59

SPRITE :dirtTile.PNG
POS :(518,365)
SCALE :0.59

SPRITE :dirtTile.PNG
POS :(518,402)
SCALE :0.59

SPRITE :dirtTile.PNG
POS :(518,439)
SCALE :0.59

SPRITE :grassTile.png
POS :(518,476)
SCALE :0.59

SPRITE :dirtTile.PNG
POS :(518,513)
SCALE :0.59

SPRITE :dirtTile.PNG
POS :(518,550)
SCALE :0.59

SPRITE :dirtTile.PNG
POS :(518,587)
SCALE :0.59

SPRITE :dirtTile.PNG
POS :(518,624)
SCALE :0.59

SPRITE :dirtTile.PNG
POS :(518,661)
SCALE :0.59

SPRITE :dirtTile.PNG
POS :(518,698)
SCALE :0.59

SPRITE :dirtTile.PNG
POS :(518,735)
SCALE :0.59

SPRITE :dirtTile.PNG
POS :(518,772)
SCALE :0.59

SPRITE :dirtTile.PNG
POS :(518,809)
SCALE :0.59

SPRITE :dirtTile.PNG
POS :(518,846)
SCALE :0.59

SPRITE :dirtTile.PNG
POS :(518,883)
SCALE :0.59

SPRITE :dirtTile.PNG
POS :(518,920)
SCALE :0.59

SPRITE :dirtTile.PNG
POS :(518,957)
SCALE :0.59

SPRITE :dirtTile.PNG
POS :(518,994)
SCALE :0.59

SPRITE :dirtTile.PNG
POS :(518,1031)
SCALE :0.59

SPRITE :dirtTile.PNG
POS :(518,1068)
SCALE :0.59

SPRITE :dirtTile.PNG
POS :(555,32)
SCALE :0.59

SPRITE :dirtTile.PNG
POS :(555,69)
SCALE :0.59

SPRITE :dirtTile.PNG
POS :(555,106)
SCALE :0.59

SPRITE :dirtTile.PNG
POS :(555,143)
SCALE :0.59

SPRITE :dirtTile.PNG
POS :(555,180)
SCALE :0.59

SPRITE :dirtTile.PNG
POS :(555,217)
SCALE :0.59

SPRITE :dirtTile.PNG
POS :(555,254)
SCALE :0.59

SPRITE :dirtTile.PNG
POS :(555,291)
SCALE :0.59

SPRITE :dirtTile.PNG
POS :(555,328)
SCALE :0.59

SPRITE :dirtTile.PNG
POS :(555,365)
SCALE :0.59

SPRITE :dirtTile.PNG
POS :(555,402)
SCALE :0.59

SPRITE :wallTile.png
POS :(555,439)
SCALE :0.59

SPRITE :wallTile.png
POS :(555,476)
SCALE :0.59

SPRITE :grassTile.png
POS :(555,513)
SCALE :0.59

SPRITE :dirtTile.PNG
POS :(555,550)
SCALE :0.59

SPRITE :dirtTile.PNG
POS :(555,587)
SCALE :0.59

SPRITE :dirtTile.PNG
POS :(555,624)
SCALE :0.59

SPRITE :dirtTile.PNG
POS :(555,661)
SCALE :0.59

SPRITE :dirtTile.PNG
POS :(555,698)
SCALE :0.59

SPRITE :dirtTile.PNG
POS :(555,735)
SCALE :0.59

SPRITE :dirtTile.PNG
POS :(555,772)
SCALE :0.59

SPRITE :dirtTile.PNG
POS :(555,809)
SCALE :0.59

SPRITE :dirtTile.PNG
POS :(555,846)
SCALE :0.59

SPRITE :dirtTile.PNG
POS :(555,883)
SCALE :0.59

SPRITE :dirtTile.PNG
POS :(555,920)
SCALE :0.59

SPRITE :dirtTile.PNG
POS :(555,957)
SCALE :0.59

SPRITE :dirtTile.PNG
POS :(555,994)
SCALE :0.59

SPRITE :dirtTile.PNG
POS :(555,1031)
SCALE :0.59

SPRITE :dirtTile.PNG
POS :(555,1068)
SCALE :0.59

SPRITE :dirtTile.PNG
POS :(592,32)
SCALE :0.59

SPRITE :dirtTile.PNG
POS :(592,69)
SCALE :0.59

SPRITE :dirtTile.PNG
POS :(592,106)
SCALE :0.59

SPRITE :dirtTile.PNG
POS :(592,143)
SCALE :0.59

SPRITE :dirtTile.PNG
POS :(592,180)
SCALE :0.59

SPRITE :dirtTile.PNG
POS :(592,217)
SCALE :0.59

SPRITE :dirtTile.PNG
POS :(592,254)
SCALE :0.59

SPRITE :dirtTile.PNG
POS :(592,291)
SCALE :0.59

SPRITE :dirtTile.PNG
POS :(592,328)
SCALE :0.59

SPRITE :dirtTile.PNG
POS :(592,365)
SCALE :0.59

SPRITE :wallTile.png
POS :(592,402)
SCALE :0.59

SPRITE :dirtTile.PNG
POS :(592,439)
SCALE :0.59

SPRITE :dirtTile.PNG
POS :(592,476)
SCALE :0.59

SPRITE :dirtTile.PNG
POS :(592,513)
SCALE :0.59

SPRITE :dirtTile.PNG
POS :(592,550)
SCALE :0.59

SPRITE :dirtTile.PNG
POS :(592,587)
SCALE :0.59

SPRITE :dirtTile.PNG
POS :(592,624)
SCALE :0.59

SPRITE :dirtTile.PNG
POS :(592,661)
SCALE :0.59

SPRITE :dirtTile.PNG
POS :(592,698)
SCALE :0.59

SPRITE :dirtTile.PNG
POS :(592,735)
SCALE :0.59

SPRITE :dirtTile.PNG
POS :(592,772)
SCALE :0.59

SPRITE :dirtTile.PNG
POS :(592,809)
SCALE :0.59

SPRITE :dirtTile.PNG
POS :(592,846)
SCALE :0.59

SPRITE :dirtTile.PNG
POS :(592,883)
SCALE :0.59

SPRITE :dirtTile.PNG
POS :(592,920)
SCALE :0.59

SPRITE :dirtTile.PNG
POS :(592,957)
SCALE :0.59

SPRITE :dirtTile.PNG
POS :(592,994)
SCALE :0.59

SPRITE :dirtTile.PNG
POS :(592,1031)
SCALE :0.59

SPRITE :dirtTile.PNG
POS :(592,1068)
SCALE :0.59

SPRITE :dirtTile.PNG
POS :(629,32)
SCALE :0.59

SPRITE :dirtTile.PNG
POS :(629,69)
SCALE :0.59

SPRITE :dirtTile.PNG
POS :(629,106)
SCALE :0.59

SPRITE :dirtTile.PNG
POS :(629,143)
SCALE :0.59

SPRITE :dirtTile.PNG
POS :(629,180)
SCALE :0.59

SPRITE :dirtTile.PNG
POS :(629,217)
SCALE :0.59

SPRITE :dirtTile.PNG
POS :(629,254)
SCALE :0.59

SPRITE :dirtTile.PNG
POS :(629,291)
SCALE :0.59

SPRITE :dirtTile.PNG
POS :(629,328)
SCALE :0.59

SPRITE :wallTile.png
POS :(629,365)
SCALE :0.59

SPRITE :dirtTile.PNG
POS :(629,402)
SCALE :0.59

SPRITE :dirtTile.PNG
POS :(629,439)
SCALE :0.59

SPRITE :dirtTile.PNG
POS :(629,476)
SCALE :0.59

SPRITE :grassTile.png
POS :(629,513)
SCALE :0.59

SPRITE :dirtTile.PNG
POS :(629,550)
SCALE :0.59

SPRITE :dirtTile.PNG
POS :(629,587)
SCALE :0.59

SPRITE :dirtTile.PNG
POS :(629,624)
SCALE :0.59

SPRITE :dirtTile.PNG
POS :(629,661)
SCALE :0.59

SPRITE :dirtTile.PNG
POS :(629,698)
SCALE :0.59

SPRITE :dirtTile.PNG
POS :(629,735)
SCALE :0.59

SPRITE :dirtTile.PNG
POS :(629,772)
SCALE :0.59

SPRITE :dirtTile.PNG
POS :(629,809)
SCALE :0.59

SPRITE :dirtTile.PNG
POS :(629,846)
SCALE :0.59

SPRITE :dirtTile.PNG
POS :(629,883)
SCALE :0.59

SPRITE :dirtTile.PNG
POS :(629,920)
SCALE :0.59

SPRITE :dirtTile.PNG
POS :(629,957)
SCALE :0.59

SPRITE :dirtTile.PNG
POS :(629,994)
SCALE :0.59

SPRITE :dirtTile.PNG
POS :(629,1031)
SCALE :0.59

SPRITE :dirtTile.PNG
POS :(629,1068)
SCALE :0.59

SPRITE :dirtTile.PNG
POS :(666,32)
SCALE :0.59

SPRITE :dirtTile.PNG
POS :(666,69)
SCALE :0.59

SPRITE :dirtTile.PNG
POS :(666,106)
SCALE :0.59

SPRITE :dirtTile.PNG
POS :(666,143)
SCALE :0.59

SPRITE :dirtTile.PNG
POS :(666,180)
SCALE :0.59

SPRITE :dirtTile.PNG
POS :(666,217)
SCALE :0.59

SPRITE :dirtTile.PNG
POS :(666,254)
SCALE :0.59

SPRITE :wallTile.png
POS :(666,291)
SCALE :0.59

SPRITE :wallTile.png
POS :(666,328)
SCALE :0.59

SPRITE :dirtTile.PNG
POS :(666,365)
SCALE :0.59

SPRITE :dirtTile.PNG
POS :(666,402)
SCALE :0.59

SPRITE :dirtTile.PNG
POS :(666,439)
SCALE :0.59

SPRITE :dirtTile.PNG
POS :(666,476)
SCALE :0.59

SPRITE :dirtTile.PNG
POS :(666,513)
SCALE :0.59

SPRITE :dirtTile.PNG
POS :(666,550)
SCALE :0.59

SPRITE :dirtTile.PNG
POS :(666,587)
SCALE :0.59

SPRITE :dirtTile.PNG
POS :(666,624)
SCALE :0.59

SPRITE :dirtTile.PNG
POS :(666,661)
SCALE :0.59

SPRITE :dirtTile.PNG
POS :(666,698)
SCALE :0.59

SPRITE :dirtTile.PNG
POS :(666,735)
SCALE :0.59

SPRITE :dirtTile.PNG
POS :(666,772)
SCALE :0.59

SPRITE :dirtTile.PNG
POS :(666,809)
SCALE :0.59

SPRITE :dirtTile.PNG
POS :(666,846)
SCALE :0.59

SPRITE :dirtTile.PNG
POS :(666,883)
SCALE :0.59

SPRITE :dirtTile.PNG
POS :(666,920)
SCALE :0.59

SPRITE :dirtTile.PNG
POS :(666,957)
SCALE :0.59

SPRITE :dirtTile.PNG
POS :(666,994)
SCALE :0.59

SPRITE :dirtTile.PNG
POS :(666,1031)
SCALE :0.59

SPRITE :dirtTile.PNG
POS :(666,1068)
SCALE :0.59

SPRITE :dirtTile.PNG
POS :(703,32)
SCALE :0.59

SPRITE :dirtTile.PNG
POS :(703,69)
SCALE :0.59

SPRITE :dirtTile.PNG
POS :(703,106)
SCALE :0.59

SPRITE :dirtTile.PNG
POS :(703,143)
SCALE :0.59

SPRITE :dirtTile.PNG
POS :(703,180)
SCALE :0.59

SPRITE :dirtTile.PNG
POS :(703,217)
SCALE :0.59

SPRITE :dirtTile.PNG
POS :(703,254)
SCALE :0.59

SPRITE :grassTile.png
POS :(703,291)
SCALE :0.59

SPRITE :grassTile.png
POS :(703,328)
SCALE :0.59

SPRITE :grassTile.png
POS :(703,365)
SCALE :0.59

SPRITE :dirtTile.PNG
POS :(703,402)
SCALE :0.59

SPRITE :dirtTile.PNG
POS :(703,439)
SCALE :0.59

SPRITE :dirtTile.PNG
POS :(703,476)
SCALE :0.59

SPRITE :dirtTile.PNG
POS :(703,513)
SCALE :0.59

SPRITE :grassTile.png
POS :(703,550)
SCALE :0.59

SPRITE :dirtTile.PNG
POS :(703,587)
SCALE :0.59

SPRITE :dirtTile.PNG
POS :(703,624)
SCALE :0.59

SPRITE :dirtTile.PNG
POS :(703,661)
SCALE :0.59

SPRITE :dirtTile.PNG
POS :(703,698)
SCALE :0.59

SPRITE :dirtTile.PNG
POS :(703,735)
SCALE :0.59

SPRITE :dirtTile.PNG
POS :(703,772)
SCALE :0.59

SPRITE :dirtTile.PNG
POS :(703,809)
SCALE :0.59

SPRITE :dirtTile.PNG
POS :(703,846)
SCALE :0.59

SPRITE :dirtTile.PNG
POS :(703,883)
SCALE :0.59

SPRITE :dirtTile.PNG
POS :(703,920)
SCALE :0.59

SPRITE :dirtTile.PNG
POS :(703,957)
SCALE :0.59

SPRITE :dirtTile.PNG
POS :(703,994)
SCALE :0.59

SPRITE :dirtTile.PNG
POS :(703,1031)
SCALE :0.59

SPRITE :dirtTile.PNG
POS :(703,1068)
SCALE :0.59

SPRITE :dirtTile.PNG
POS :(740,32)
SCALE :0.59

SPRITE :dirtTile.PNG
POS :(740,69)
SCALE :0.59

SPRITE :dirtTile.PNG
POS :(740,106)
SCALE :0.59

SPRITE :dirtTile.PNG
POS :(740,143)
SCALE :0.59

SPRITE :dirtTile.PNG
POS :(740,180)
SCALE :0.59

SPRITE :dirtTile.PNG
POS :(740,217)
SCALE :0.59

SPRITE :grassTile.png
POS :(740,254)
SCALE :0.59

SPRITE :dirtTile.PNG
POS :(740,291)
SCALE :0.59

SPRITE :wallTile.png
POS :(740,328)
SCALE :0.59

SPRITE :dirtTile.PNG
POS :(740,365)
SCALE :0.59

SPRITE :grassTile.png
POS :(740,402)
SCALE :0.59

SPRITE :dirtTile.PNG
POS :(740,439)
SCALE :0.59

SPRITE :dirtTile.PNG
POS :(740,476)
SCALE :0.59

SPRITE :dirtTile.PNG
POS :(740,513)
SCALE :0.59

SPRITE :dirtTile.PNG
POS :(740,550)
SCALE :0.59

SPRITE :dirtTile.PNG
POS :(740,587)
SCALE :0.59

SPRITE :dirtTile.PNG
POS :(740,624)
SCALE :0.59

SPRITE :dirtTile.PNG
POS :(740,661)
SCALE :0.59

SPRITE :dirtTile.PNG
POS :(740,698)
SCALE :0.59

SPRITE :dirtTile.PNG
POS :(740,735)
SCALE :0.59

SPRITE :dirtTile.PNG
POS :(740,772)
SCALE :0.59

SPRITE :dirtTile.PNG
POS :(740,809)
SCALE :0.59

SPRITE :dirtTile.PNG
POS :(740,846)
SCALE :0.59

SPRITE :dirtTile.PNG
POS :(740,883)
SCALE :0.59

SPRITE :dirtTile.PNG
POS :(740,920)
SCALE :0.59

SPRITE :dirtTile.PNG
POS :(740,957)
SCALE :0.59

SPRITE :dirtTile.PNG
POS :(740,994)
SCALE :0.59

SPRITE :dirtTile.PNG
POS :(740,1031)
SCALE :0.59

SPRITE :dirtTile.PNG
POS :(740,1068)
SCALE :0.59

SPRITE :dirtTile.PNG
POS :(777,32)
SCALE :0.59

SPRITE :dirtTile.PNG
POS :(777,69)
SCALE :0.59

SPRITE :dirtTile.PNG
POS :(777,106)
SCALE :0.59

SPRITE :dirtTile.PNG
POS :(777,143)
SCALE :0.59

SPRITE :dirtTile.PNG
POS :(777,180)
SCALE :0.59

SPRITE :grassTile.png
POS :(777,217)
SCALE :0.59

SPRITE :dirtTile.PNG
POS :(777,254)
SCALE :0.59

SPRITE :dirtTile.PNG
POS :(777,291)
SCALE :0.59

SPRITE :dirtTile.PNG
POS :(777,328)
SCALE :0.59

SPRITE :wallTile.png
POS :(777,365)
SCALE :0.59

SPRITE :dirtTile.PNG
POS :(777,402)
SCALE :0.59

SPRITE :grassTile.png
POS :(777,439)
SCALE :0.59

SPRITE :grassTile.png
POS :(777,476)
SCALE :0.59

SPRITE :dirtTile.PNG
POS :(777,513)
SCALE :0.59

SPRITE :dirtTile.PNG
POS :(777,550)
SCALE :0.59

SPRITE :dirtTile.PNG
POS :(777,587)
SCALE :0.59

SPRITE :dirtTile.PNG
POS :(777,624)
SCALE :0.59

SPRITE :dirtTile.PNG
POS :(777,661)
SCALE :0.59

SPRITE :dirtTile.PNG
POS :(777,698)
SCALE :0.59

SPRITE :dirtTile.PNG
POS :(777,735)
SCALE :0.59

SPRITE :dirtTile.PNG
POS :(777,772)
SCALE :0.59

SPRITE :dirtTile.PNG
POS :(777,809)
SCALE :0.59

SPRITE :dirtTile.PNG
POS :(777,846)
SCALE :0.59

SPRITE :dirtTile.PNG
POS :(777,883)
SCALE :0.59

SPRITE :dirtTile.PNG
POS :(777,920)
SCALE :0.59

SPRITE :dirtTile.PNG
POS :(777,957)
SCALE :0.59

SPRITE :dirtTile.PNG
POS :(777,994)
SCALE :0.59

SPRITE :dirtTile.PNG
POS :(777,1031)
SCALE :0.59

SPRITE :dirtTile.PNG
POS :(777,1068)
SCALE :0.59

SPRITE :dirtTile.PNG
POS :(814,32)
SCALE :0.59

SPRITE :dirtTile.PNG
POS :(814,69)
SCALE :0.59

SPRITE :dirtTile.PNG
POS :(814,106)
SCALE :0.59

SPRITE :dirtTile.PNG
POS :(814,143)
SCALE :0.59

SPRITE :grassTile.png
POS :(814,180)
SCALE :0.59

SPRITE :wallTile.png
POS :(814,217)
SCALE :0.59

SPRITE :wallTile.png
POS :(814,254)
SCALE :0.59

SPRITE :dirtTile.PNG
POS :(814,291)
SCALE :0.59

SPRITE :dirtTile.PNG
POS :(814,328)
SCALE :0.59

SPRITE :wallTile.png
POS :(814,365)
SCALE :0.59

SPRITE :dirtTile.PNG
POS :(814,402)
SCALE :0.59

SPRITE :dirtTile.PNG
POS :(814,439)
SCALE :0.59

SPRITE :grassTile.png
POS :(814,476)
SCALE :0.59

SPRITE :dirtTile.PNG
POS :(814,513)
SCALE :0.59

SPRITE :grassTile.png
POS :(814,550)
SCALE :0.59

SPRITE :dirtTile.PNG
POS :(814,587)
SCALE :0.59

SPRITE :dirtTile.PNG
POS :(814,624)
SCALE :0.59

SPRITE :dirtTile.PNG
POS :(814,661)
SCALE :0.59

SPRITE :dirtTile.PNG
POS :(814,698)
SCALE :0.59

SPRITE :dirtTile.PNG
POS :(814,735)
SCALE :0.59

SPRITE :dirtTile.PNG
POS :(814,772)
SCALE :0.59

SPRITE :dirtTile.PNG
POS :(814,809)
SCALE :0.59

SPRITE :dirtTile.PNG
POS :(814,846)
SCALE :0.59

SPRITE :dirtTile.PNG
POS :(814,883)
SCALE :0.59

SPRITE :dirtTile.PNG
POS :(814,920)
SCALE :0.59

SPRITE :dirtTile.PNG
POS :(814,957)
SCALE :0.59

SPRITE :dirtTile.PNG
POS :(814,994)
SCALE :0.59

SPRITE :dirtTile.PNG
POS :(814,1031)
SCALE :0.59

SPRITE :dirtTile.PNG
POS :(814,1068)
SCALE :0.59

SPRITE :dirtTile.PNG
POS :(851,32)
SCALE :0.59

SPRITE :dirtTile.PNG
POS :(851,69)
SCALE :0.59

SPRITE :dirtTile.PNG
POS :(851,106)
SCALE :0.59

SPRITE :grassTile.png
POS :(851,143)
SCALE :0.59

SPRITE :wallTile.png
POS :(851,180)
SCALE :0.59

SPRITE :dirtTile.PNG
POS :(851,217)
SCALE :0.59

SPRITE :dirtTile.PNG
POS :(851,254)
SCALE :0.59

SPRITE :wallTile.png
POS :(851,291)
SCALE :0.59

SPRITE :dirtTile.PNG
POS :(851,328)
SCALE :0.59

SPRITE :wallTile.png
POS :(851,365)
SCALE :0.59

SPRITE :dirtTile.PNG
POS :(851,402)
SCALE :0.59

SPRITE :dirtTile.PNG
POS :(851,439)
SCALE :0.59

SPRITE :grassTile.png
POS :(851,476)
SCALE :0.59

SPRITE :dirtTile.PNG
POS :(851,513)
SCALE :0.59

SPRITE :dirtTile.PNG
POS :(851,550)
SCALE :0.59

SPRITE :dirtTile.PNG
POS :(851,587)
SCALE :0.59

SPRITE :dirtTile.PNG
POS :(851,624)
SCALE :0.59

SPRITE :dirtTile.PNG
POS :(851,661)
SCALE :0.59

SPRITE :dirtTile.PNG
POS :(851,698)
SCALE :0.59

SPRITE :dirtTile.PNG
POS :(851,735)
SCALE :0.59

SPRITE :dirtTile.PNG
POS :(851,772)
SCALE :0.59

SPRITE :dirtTile.PNG
POS :(851,809)
SCALE :0.59

SPRITE :dirtTile.PNG
POS :(851,846)
SCALE :0.59

SPRITE :dirtTile.PNG
POS :(851,883)
SCALE :0.59

SPRITE :dirtTile.PNG
POS :(851,920)
SCALE :0.59

SPRITE :dirtTile.PNG
POS :(851,957)
SCALE :0.59

SPRITE :dirtTile.PNG
POS :(851,994)
SCALE :0.59

SPRITE :dirtTile.PNG
POS :(851,1031)
SCALE :0.59

SPRITE :dirtTile.PNG
POS :(851,1068)
SCALE :0.59

SPRITE :dirtTile.PNG
POS :(888,32)
SCALE :0.59

SPRITE :dirtTile.PNG
POS :(888,69)
SCALE :0.59

SPRITE :dirtTile.PNG
POS :(888,106)
SCALE :0.59

SPRITE :grassTile.png
POS :(888,143)
SCALE :0.59

SPRITE :dirtTile.PNG
POS :(888,180)
SCALE :0.59

SPRITE :dirtTile.PNG
POS :(888,217)
SCALE :0.59

SPRITE :dirtTile.PNG
POS :(888,254)
SCALE :0.59

SPRITE :dirtTile.PNG
POS :(888,291)
SCALE :0.59

SPRITE :wallTile.png
POS :(888,328)
SCALE :0.59

SPRITE :wallTile.png
POS :(888,365)
SCALE :0.59

SPRITE :dirtTile.PNG
POS :(888,402)
SCALE :0.59

SPRITE :grassTile.png
POS :(888,439)
SCALE :0.59

SPRITE :dirtTile.PNG
POS :(888,476)
SCALE :0.59

SPRITE :grassTile.png
POS :(888,513)
SCALE :0.59

SPRITE :dirtTile.PNG
POS :(888,550)
SCALE :0.59

SPRITE :dirtTile.PNG
POS :(888,587)
SCALE :0.59

SPRITE :dirtTile.PNG
POS :(888,624)
SCALE :0.59

SPRITE :dirtTile.PNG
POS :(888,661)
SCALE :0.59

SPRITE :dirtTile.PNG
POS :(888,698)
SCALE :0.59

SPRITE :dirtTile.PNG
POS :(888,735)
SCALE :0.59

SPRITE :dirtTile.PNG
POS :(888,772)
SCALE :0.59

SPRITE :dirtTile.PNG
POS :(888,809)
SCALE :0.59

SPRITE :dirtTile.PNG
POS :(888,846)
SCALE :0.59

SPRITE :dirtTile.PNG
POS :(888,883)
SCALE :0.59

SPRITE :dirtTile.PNG
POS :(888,920)
SCALE :0.59

SPRITE :dirtTile.PNG
POS :(888,957)
SCALE :0.59

SPRITE :dirtTile.PNG
POS :(888,994)
SCALE :0.59

SPRITE :dirtTile.PNG
POS :(888,1031)
SCALE :0.59

SPRITE :dirtTile.PNG
POS :(888,1068)
SCALE :0.59

SPRITE :dirtTile.PNG
POS :(925,32)
SCALE :0.59

SPRITE :dirtTile.PNG
POS :(925,69)
SCALE :0.59

SPRITE :dirtTile.PNG
POS :(925,106)
SCALE :0.59

SPRITE :grassTile.png
POS :(925,143)
SCALE :0.59

SPRITE :dirtTile.PNG
POS :(925,180)
SCALE :0.59

SPRITE :dirtTile.PNG
POS :(925,217)
SCALE :0.59

SPRITE :dirtTile.PNG
POS :(925,254)
SCALE :0.59

SPRITE :dirtTile.PNG
POS :(925,291)
SCALE :0.59

SPRITE :wallTile.png
POS :(925,328)
SCALE :0.59

SPRITE :wallTile.png
POS :(925,365)
SCALE :0.59

SPRITE :dirtTile.PNG
POS :(925,402)
SCALE :0.59

SPRITE :grassTile.png
POS :(925,439)
SCALE :0.59

SPRITE :dirtTile.PNG
POS :(925,476)
SCALE :0.59

SPRITE :dirtTile.PNG
POS :(925,513)
SCALE :0.59

SPRITE :dirtTile.PNG
POS :(925,550)
SCALE :0.59

SPRITE :dirtTile.PNG
POS :(925,587)
SCALE :0.59

SPRITE :dirtTile.PNG
POS :(925,624)
SCALE :0.59

SPRITE :dirtTile.PNG
POS :(925,661)
SCALE :0.59

SPRITE :dirtTile.PNG
POS :(925,698)
SCALE :0.59

SPRITE :dirtTile.PNG
POS :(925,735)
SCALE :0.59

SPRITE :dirtTile.PNG
POS :(925,772)
SCALE :0.59

SPRITE :dirtTile.PNG
POS :(925,809)
SCALE :0.59

SPRITE :dirtTile.PNG
POS :(925,846)
SCALE :0.59

SPRITE :dirtTile.PNG
POS :(925,883)
SCALE :0.59

SPRITE :dirtTile.PNG
POS :(925,920)
SCALE :0.59

SPRITE :dirtTile.PNG
POS :(925,957)
SCALE :0.59

SPRITE :dirtTile.PNG
POS :(925,994)
SCALE :0.59

SPRITE :dirtTile.PNG
POS :(925,1031)
SCALE :0.59

SPRITE :dirtTile.PNG
POS :(925,1068)
SCALE :0.59

SPRITE :dirtTile.PNG
POS :(962,32)
SCALE :0.59

SPRITE :dirtTile.PNG
POS :(962,69)
SCALE :0.59

SPRITE :wallTile.png
POS :(962,106)
SCALE :0.59

SPRITE :grassTile.png
POS :(962,143)
SCALE :0.59

SPRITE :dirtTile.PNG
POS :(962,180)
SCALE :0.59

SPRITE :wallTile.png
POS :(962,217)
SCALE :0.59

SPRITE :wallTile.png
POS :(962,254)
SCALE :0.59

SPRITE :wallTile.png
POS :(962,291)
SCALE :0.59

SPRITE :wallTile.png
POS :(962,328)
SCALE :0.59

SPRITE :wallTile.png
POS :(962,365)
SCALE :0.59

SPRITE :grassTile.png
POS :(962,402)
SCALE :0.59

SPRITE :dirtTile.PNG
POS :(962,439)
SCALE :0.59

SPRITE :dirtTile.PNG
POS :(962,476)
SCALE :0.59

SPRITE :grassTile.png
POS :(962,513)
SCALE :0.59

SPRITE :dirtTile.PNG
POS :(962,550)
SCALE :0.59

SPRITE :dirtTile.PNG
POS :(962,587)
SCALE :0.59

SPRITE :dirtTile.PNG
POS :(962,624)
SCALE :0.59

SPRITE :dirtTile.PNG
POS :(962,661)
SCALE :0.59

SPRITE :dirtTile.PNG
POS :(962,698)
SCALE :0.59

SPRITE :dirtTile.PNG
POS :(962,735)
SCALE :0.59

SPRITE :dirtTile.PNG
POS :(962,772)
SCALE :0.59

SPRITE :dirtTile.PNG
POS :(962,809)
SCALE :0.59

SPRITE :wallTile.png
POS :(962,846)
SCALE :0.59

SPRITE :wallTile.png
POS :(962,883)
SCALE :0.59

SPRITE :wallTile.png
POS :(962,920)
SCALE :0.59

SPRITE :wallTile.png
POS :(962,957)
SCALE :0.59

SPRITE :wallTile.png
POS :(962,994)
SCALE :0.59

SPRITE :wallTile.png
POS :(962,1031)
SCALE :0.59

SPRITE :dirtTile.PNG
POS :(962,1068)
SCALE :0.59

SPRITE :dirtTile.PNG
POS :(999,32)
SCALE :0.59

SPRITE :dirtTile.PNG
POS :(999,69)
SCALE :0.59

SPRITE :wallTile.png
POS :(999,106)
SCALE :0.59

SPRITE :dirtTile.PNG
POS :(999,143)
SCALE :0.59

SPRITE :grassTile.png
POS :(999,180)
SCALE :0.59

SPRITE :wallTile.png
POS :(999,217)
SCALE :0.59

SPRITE :wallTile.png
POS :(999,254)
SCALE :0.59

SPRITE :wallTile.png
POS :(999,291)
SCALE :0.59

SPRITE :dirtTile.PNG
POS :(999,328)
SCALE :0.59

SPRITE :grassTile.png
POS :(999,365)
SCALE :0.59

SPRITE :wallTile.png
POS :(999,402)
SCALE :0.59

SPRITE :dirtTile.PNG
POS :(999,439)
SCALE :0.59

SPRITE :dirtTile.PNG
POS :(999,476)
SCALE :0.59

SPRITE :dirtTile.PNG
POS :(999,513)
SCALE :0.59

SPRITE :dirtTile.PNG
POS :(999,550)
SCALE :0.59

SPRITE :dirtTile.PNG
POS :(999,587)
SCALE :0.59

SPRITE :dirtTile.PNG
POS :(999,624)
SCALE :0.59

SPRITE :dirtTile.PNG
POS :(999,661)
SCALE :0.59

SPRITE :dirtTile.PNG
POS :(999,698)
SCALE :0.59

SPRITE :dirtTile.PNG
POS :(999,735)
SCALE :0.59

SPRITE :dirtTile.PNG
POS :(999,772)
SCALE :0.59

SPRITE :wallTile.png
POS :(999,809)
SCALE :0.59

SPRITE :dirtTile.PNG
POS :(999,846)
SCALE :0.59

SPRITE :dirtTile.PNG
POS :(999,883)
SCALE :0.59

SPRITE :dirtTile.PNG
POS :(999,920)
SCALE :0.59

SPRITE :dirtTile.PNG
POS :(999,957)
SCALE :0.59

SPRITE :dirtTile.PNG
POS :(999,994)
SCALE :0.59

SPRITE :wallTile.png
POS :(999,1031)
SCALE :0.59

SPRITE :dirtTile.PNG
POS :(999,1068)
SCALE :0.59

SPRITE :dirtTile.PNG
POS :(1036,32)
SCALE :0.59

SPRITE :dirtTile.PNG
POS :(1036,69)
SCALE :0.59

SPRITE :wallTile.png
POS :(1036,106)
SCALE :0.59

SPRITE :wallTile.png
POS :(1036,143)
SCALE :0.59

SPRITE :grassTile.png
POS :(1036,180)
SCALE :0.59

SPRITE :wallTile.png
POS :(1036,217)
SCALE :0.59

SPRITE :dirtTile.PNG
POS :(1036,254)
SCALE :0.59

SPRITE :wallTile.png
POS :(1036,291)
SCALE :0.59

SPRITE :grassTile.png
POS :(1036,328)
SCALE :0.59

SPRITE :dirtTile.PNG
POS :(1036,365)
SCALE :0.59

SPRITE :wallTile.png
POS :(1036,402)
SCALE :0.59

SPRITE :dirtTile.PNG
POS :(1036,439)
SCALE :0.59

SPRITE :grassTile.png
POS :(1036,476)
SCALE :0.59

SPRITE :dirtTile.PNG
POS :(1036,513)
SCALE :0.59

SPRITE :dirtTile.PNG
POS :(1036,550)
SCALE :0.59

SPRITE :dirtTile.PNG
POS :(1036,587)
SCALE :0.59

SPRITE :dirtTile.PNG
POS :(1036,624)
SCALE :0.59

SPRITE :dirtTile.PNG
POS :(1036,661)
SCALE :0.59

SPRITE :dirtTile.PNG
POS :(1036,698)
SCALE :0.59

SPRITE :dirtTile.PNG
POS :(1036,735)
SCALE :0.59

SPRITE :wallTile.png
POS :(1036,772)
SCALE :0.59

SPRITE :dirtTile.PNG
POS :(1036,809)
SCALE :0.59

SPRITE :dirtTile.PNG
POS :(1036,846)
SCALE :0.59

SPRITE :dirtTile.PNG
POS :(1036,883)
SCALE :0.59

SPRITE :dirtTile.PNG
POS :(1036,920)
SCALE :0.59

SPRITE :dirtTile.PNG
POS :(1036,957)
SCALE :0.59

SPRITE :dirtTile.PNG
POS :(1036,994)
SCALE :0.59

SPRITE :wallTile.png
POS :(1036,1031)
SCALE :0.59

SPRITE :wallTile.png
POS :(1036,1068)
SCALE :0.59

SPRITE :dirtTile.PNG
POS :(1073,32)
SCALE :0.59

SPRITE :dirtTile.PNG
POS :(1073,69)
SCALE :0.59

SPRITE :wallTile.png
POS :(1073,106)
SCALE :0.59

SPRITE :dirtTile.PNG
POS :(1073,143)
SCALE :0.59

SPRITE :dirtTile.PNG
POS :(1073,180)
SCALE :0.59

SPRITE :dirtTile.PNG
POS :(1073,217)
SCALE :0.59

SPRITE :grassTile.png
POS :(1073,254)
SCALE :0.59

SPRITE :grassTile.png
POS :(1073,291)
SCALE :0.59

SPRITE :dirtTile.PNG
POS :(1073,328)
SCALE :0.59

SPRITE :dirtTile.PNG
POS :(1073,365)
SCALE :0.59

SPRITE :dirtTile.PNG
POS :(1073,402)
SCALE :0.59

SPRITE :wallTile.png
POS :(1073,439)
SCALE :0.59

SPRITE :wallTile.png
POS :(1073,476)
SCALE :0.59

SPRITE :dirtTile.PNG
POS :(1073,513)
SCALE :0.59

SPRITE :dirtTile.PNG
POS :(1073,550)
SCALE :0.59

SPRITE :dirtTile.PNG
POS :(1073,587)
SCALE :0.59

SPRITE :dirtTile.PNG
POS :(1073,624)
SCALE :0.59

SPRITE :dirtTile.PNG
POS :(1073,661)
SCALE :0.59

SPRITE :wallTile.png
POS :(1073,698)
SCALE :0.59

SPRITE :wallTile.png
POS :(1073,735)
SCALE :0.59

SPRITE :dirtTile.PNG
POS :(1073,772)
SCALE :0.59

SPRITE :dirtTile.PNG
POS :(1073,809)
SCALE :0.59

SPRITE :dirtTile.PNG
POS :(1073,846)
SCALE :0.59

SPRITE :dirtTile.PNG
POS :(1073,883)
SCALE :0.59

SPRITE :dirtTile.PNG
POS :(1073,920)
SCALE :0.59

SPRITE :dirtTile.PNG
POS :(1073,957)
SCALE :0.59

SPRITE :dirtTile.PNG
POS :(1073,994)
SCALE :0.59

SPRITE :dirtTile.PNG
POS :(1073,1031)
SCALE :0.59

SPRITE :wallTile.png
POS :(1073,1068)
SCALE :0.59

SPRITE :dirtTile.PNG
POS :(1110,32)
SCALE :0.59

SPRITE :wallTile.png
POS :(1110,69)
SCALE :0.59

SPRITE :wallTile.png
POS :(1110,106)
SCALE :0.59

SPRITE :wallTile.png
POS :(1110,143)
SCALE :0.59

SPRITE :dirtTile.PNG
POS :(1110,180)
SCALE :0.59

SPRITE :dirtTile.PNG
POS :(1110,217)
SCALE :0.59

SPRITE :grassTile.png
POS :(1110,254)
SCALE :0.59

SPRITE :grassTile.png
POS :(1110,291)
SCALE :0.59

SPRITE :grassTile.png
POS :(1110,328)
SCALE :0.59

SPRITE :dirtTile.PNG
POS :(1110,365)
SCALE :0.59

SPRITE :dirtTile.PNG
POS :(1110,402)
SCALE :0.59

SPRITE :grassTile.png
POS :(1110,439)
SCALE :0.59

SPRITE :wallTile.png
POS :(1110,476)
SCALE :0.59

SPRITE :wallTile.png
POS :(1110,513)
SCALE :0.59

SPRITE :wallTile.png
POS :(1110,550)
SCALE :0.59

SPRITE :wallTile.png
POS :(1110,587)
SCALE :0.59

SPRITE :wallTile.png
POS :(1110,624)
SCALE :0.59

SPRITE :wallTile.png
POS :(1110,661)
SCALE :0.59

SPRITE :dirtTile.PNG
POS :(1110,698)
SCALE :0.59

SPRITE :dirtTile.PNG
POS :(1110,735)
SCALE :0.59

SPRITE :dirtTile.PNG
POS :(1110,772)
SCALE :0.59

SPRITE :wallTile.png
POS :(1110,809)
SCALE :0.59

SPRITE :wallTile.png
POS :(1110,846)
SCALE :0.59

SPRITE :wallTile.png
POS :(1110,883)
SCALE :0.59

SPRITE :wallTile.png
POS :(1110,920)
SCALE :0.59

SPRITE :wallTile.png
POS :(1110,957)
SCALE :0.59

SPRITE :wallTile.png
POS :(1110,994)
SCALE :0.59

SPRITE :wallTile.png
POS :(1110,1031)
SCALE :0.59

SPRITE :wallTile.png
POS :(1110,1068)
SCALE :0.59

SPRITE :dirtTile.PNG
POS :(1147,32)
SCALE :0.59

SPRITE :wallTile.png
POS :(1147,69)
SCALE :0.59

SPRITE :wallTile.png
POS :(1147,106)
SCALE :0.59

SPRITE :wallTile.png
POS :(1147,143)
SCALE :0.59

SPRITE :dirtTile.PNG
POS :(1147,180)
SCALE :0.59

SPRITE :dirtTile.PNG
POS :(1147,217)
SCALE :0.59

SPRITE :wallTile.png
POS :(1147,254)
SCALE :0.59

SPRITE :dirtTile.PNG
POS :(1147,291)
SCALE :0.59

SPRITE :dirtTile.PNG
POS :(1147,328)
SCALE :0.59

SPRITE :grassTile.png
POS :(1147,365)
SCALE :0.59

SPRITE :grassTile.png
POS :(1147,402)
SCALE :0.59

SPRITE :dirtTile.PNG
POS :(1147,439)
SCALE :0.59

SPRITE :dirtTile.PNG
POS :(1147,476)
SCALE :0.59

SPRITE :dirtTile.PNG
POS :(1147,513)
SCALE :0.59

SPRITE :dirtTile.PNG
POS :(1147,550)
SCALE :0.59

SPRITE :dirtTile.PNG
POS :(1147,587)
SCALE :0.59

SPRITE :dirtTile.PNG
POS :(1147,624)
SCALE :0.59

SPRITE :dirtTile.PNG
POS :(1147,661)
SCALE :0.59

SPRITE :dirtTile.PNG
POS :(1147,698)
SCALE :0.59

SPRITE :wallTile.png
POS :(1147,735)
SCALE :0.59

SPRITE :wallTile.png
POS :(1147,772)
SCALE :0.59

SPRITE :wallTile.png
POS :(1147,809)
SCALE :0.59

SPRITE :dirtTile.PNG
POS :(1147,846)
SCALE :0.59

SPRITE :dirtTile.PNG
POS :(1147,883)
SCALE :0.59

SPRITE :dirtTile.PNG
POS :(1147,920)
SCALE :0.59

SPRITE :dirtTile.PNG
POS :(1147,957)
SCALE :0.59

SPRITE :dirtTile.PNG
POS :(1147,994)
SCALE :0.59

SPRITE :dirtTile.PNG
POS :(1147,1031)
SCALE :0.59

SPRITE :wallTile.png
POS :(1147,1068)
SCALE :0.59

SPRITE :dirtTile.PNG
POS :(1184,32)
SCALE :0.59

SPRITE :dirtTile.PNG
POS :(1184,69)
SCALE :0.59

SPRITE :wallTile.png
POS :(1184,106)
SCALE :0.59

SPRITE :wallTile.png
POS :(1184,143)
SCALE :0.59

SPRITE :dirtTile.PNG
POS :(1184,180)
SCALE :0.59

SPRITE :grassTile.png
POS :(1184,217)
SCALE :0.59

SPRITE :wallTile.png
POS :(1184,254)
SCALE :0.59

SPRITE :dirtTile.PNG
POS :(1184,291)
SCALE :0.59

SPRITE :dirtTile.PNG
POS :(1184,328)
SCALE :0.59

SPRITE :dirtTile.PNG
POS :(1184,365)
SCALE :0.59

SPRITE :dirtTile.PNG
POS :(1184,402)
SCALE :0.59

SPRITE :dirtTile.PNG
POS :(1184,439)
SCALE :0.59

SPRITE :dirtTile.PNG
POS :(1184,476)
SCALE :0.59

SPRITE :dirtTile.PNG
POS :(1184,513)
SCALE :0.59

SPRITE :dirtTile.PNG
POS :(1184,550)
SCALE :0.59

SPRITE :dirtTile.PNG
POS :(1184,587)
SCALE :0.59

SPRITE :dirtTile.PNG
POS :(1184,624)
SCALE :0.59

SPRITE :dirtTile.PNG
POS :(1184,661)
SCALE :0.59

SPRITE :wallTile.png
POS :(1184,698)
SCALE :0.59

SPRITE :wallTile.png
POS :(1184,735)
SCALE :0.59

SPRITE :dirtTile.PNG
POS :(1184,772)
SCALE :0.59

SPRITE :dirtTile.PNG
POS :(1184,809)
SCALE :0.59

SPRITE :dirtTile.PNG
POS :(1184,846)
SCALE :0.59

SPRITE :dirtTile.PNG
POS :(1184,883)
SCALE :0.59

SPRITE :dirtTile.PNG
POS :(1184,920)
SCALE :0.59

SPRITE :dirtTile.PNG
POS :(1184,957)
SCALE :0.59

SPRITE :dirtTile.PNG
POS :(1184,994)
SCALE :0.59

SPRITE :dirtTile.PNG
POS :(1184,1031)
SCALE :0.59

SPRITE :wallTile.png
POS :(1184,1068)
SCALE :0.59

SPRITE :dirtTile.PNG
POS :(1221,32)
SCALE :0.59

SPRITE :dirtTile.PNG
POS :(1221,69)
SCALE :0.59

SPRITE :dirtTile.PNG
POS :(1221,106)
SCALE :0.59

SPRITE :wallTile.png
POS :(1221,143)
SCALE :0.59

SPRITE :grassTile.png
POS :(1221,180)
SCALE :0.59

SPRITE :wallTile.png
POS :(1221,217)
SCALE :0.59

SPRITE :dirtTile.PNG
POS :(1221,254)
SCALE :0.59

SPRITE :dirtTile.PNG
POS :(1221,291)
SCALE :0.59

SPRITE :wallTile.png
POS :(1221,328)
SCALE :0.59

SPRITE :dirtTile.PNG
POS :(1221,365)
SCALE :0.59

SPRITE :dirtTile.PNG
POS :(1221,402)
SCALE :0.59

SPRITE :dirtTile.PNG
POS :(1221,439)
SCALE :0.59

SPRITE :dirtTile.PNG
POS :(1221,476)
SCALE :0.59

SPRITE :dirtTile.PNG
POS :(1221,513)
SCALE :0.59

SPRITE :dirtTile.PNG
POS :(1221,550)
SCALE :0.59

SPRITE :dirtTile.PNG
POS :(1221,587)
SCALE :0.59

SPRITE :wallTile.png
POS :(1221,624)
SCALE :0.59

SPRITE :wallTile.png
POS :(1221,661)
SCALE :0.59

SPRITE :dirtTile.PNG
POS :(1221,698)
SCALE :0.59

SPRITE :dirtTile.PNG
POS :(1221,735)
SCALE :0.59

SPRITE :dirtTile.PNG
POS :(1221,772)
SCALE :0.59

SPRITE :dirtTile.PNG
POS :(1221,809)
SCALE :0.59

SPRITE :dirtTile.PNG
POS :(1221,846)
SCALE :0.59

SPRITE :dirtTile.PNG
POS :(1221,883)
SCALE :0.59

SPRITE :dirtTile.PNG
POS :(1221,920)
SCALE :0.59

SPRITE :dirtTile.PNG
POS :(1221,957)
SCALE :0.59

SPRITE :dirtTile.PNG
POS :(1221,994)
SCALE :0.59

SPRITE :dirtTile.PNG
POS :(1221,1031)
SCALE :0.59

SPRITE :wallTile.png
POS :(1221,1068)
SCALE :0.59

SPRITE :dirtTile.PNG
POS :(1258,32)
SCALE :0.59

SPRITE :dirtTile.PNG
POS :(1258,69)
SCALE :0.59

SPRITE :dirtTile.PNG
POS :(1258,106)
SCALE :0.59

SPRITE :wallTile.png
POS :(1258,143)
SCALE :0.59

SPRITE :grassTile.png
POS :(1258,180)
SCALE :0.59

SPRITE :wallTile.png
POS :(1258,217)
SCALE :0.59

SPRITE :dirtTile.PNG
POS :(1258,254)
SCALE :0.59

SPRITE :dirtTile.PNG
POS :(1258,291)
SCALE :0.59

SPRITE :wallTile.png
POS :(1258,328)
SCALE :0.59

SPRITE :dirtTile.PNG
POS :(1258,365)
SCALE :0.59

SPRITE :dirtTile.PNG
POS :(1258,402)
SCALE :0.59

SPRITE :dirtTile.PNG
POS :(1258,439)
SCALE :0.59

SPRITE :dirtTile.PNG
POS :(1258,476)
SCALE :0.59

SPRITE :dirtTile.PNG
POS :(1258,513)
SCALE :0.59

SPRITE :dirtTile.PNG
POS :(1258,550)
SCALE :0.59

SPRITE :wallTile.png
POS :(1258,587)
SCALE :0.59

SPRITE :wallTile.png
POS :(1258,624)
SCALE :0.59

SPRITE :dirtTile.PNG
POS :(1258,661)
SCALE :0.59

SPRITE :dirtTile.PNG
POS :(1258,698)
SCALE :0.59

SPRITE :dirtTile.PNG
POS :(1258,735)
SCALE :0.59

SPRITE :dirtTile.PNG
POS :(1258,772)
SCALE :0.59

SPRITE :dirtTile.PNG
POS :(1258,809)
SCALE :0.59

SPRITE :dirtTile.PNG
POS :(1258,846)
SCALE :0.59

SPRITE :dirtTile.PNG
POS :(1258,883)
SCALE :0.59

SPRITE :dirtTile.PNG
POS :(1258,920)
SCALE :0.59

SPRITE :dirtTile.PNG
POS :(1258,957)
SCALE :0.59

SPRITE :dirtTile.PNG
POS :(1258,994)
SCALE :0.59

SPRITE :dirtTile.PNG
POS :(1258,1031)
SCALE :0.59

SPRITE :dirtTile.PNG
POS :(1258,1068)
SCALE :0.59

SPRITE :dirtTile.PNG
POS :(1295,32)
SCALE :0.59

SPRITE :dirtTile.PNG
POS :(1295,69)
SCALE :0.59

SPRITE :dirtTile.PNG
POS :(1295,106)
SCALE :0.59

SPRITE :dirtTile.PNG
POS :(1295,143)
SCALE :0.59

SPRITE :grassTile.png
POS :(1295,180)
SCALE :0.59

SPRITE :wallTile.png
POS :(1295,217)
SCALE :0.59

SPRITE :dirtTile.PNG
POS :(1295,254)
SCALE :0.59

SPRITE :dirtTile.PNG
POS :(1295,291)
SCALE :0.59

SPRITE :dirtTile.PNG
POS :(1295,328)
SCALE :0.59

SPRITE :dirtTile.PNG
POS :(1295,365)
SCALE :0.59

SPRITE :dirtTile.PNG
POS :(1295,402)
SCALE :0.59

SPRITE :dirtTile.PNG
POS :(1295,439)
SCALE :0.59

SPRITE :dirtTile.PNG
POS :(1295,476)
SCALE :0.59

SPRITE :dirtTile.PNG
POS :(1295,513)
SCALE :0.59

SPRITE :wallTile.png
POS :(1295,550)
SCALE :0.59

SPRITE :dirtTile.PNG
POS :(1295,587)
SCALE :0.59

SPRITE :dirtTile.PNG
POS :(1295,624)
SCALE :0.59

SPRITE :dirtTile.PNG
POS :(1295,661)
SCALE :0.59

SPRITE :dirtTile.PNG
POS :(1295,698)
SCALE :0.59

SPRITE :dirtTile.PNG
POS :(1295,735)
SCALE :0.59

SPRITE :dirtTile.PNG
POS :(1295,772)
SCALE :0.59

SPRITE :dirtTile.PNG
POS :(1295,809)
SCALE :0.59

SPRITE :dirtTile.PNG
POS :(1295,846)
SCALE :0.59

SPRITE :dirtTile.PNG
POS :(1295,883)
SCALE :0.59

SPRITE :dirtTile.PNG
POS :(1295,920)
SCALE :0.59

SPRITE :dirtTile.PNG
POS :(1295,957)
SCALE :0.59

SPRITE :dirtTile.PNG
POS :(1295,994)
SCALE :0.59

SPRITE :dirtTile.PNG
POS :(1295,1031)
SCALE :0.59

SPRITE :dirtTile.PNG
POS :(1295,1068)
SCALE :0.59

SPRITE :dirtTile.PNG
POS :(1332,32)
SCALE :0.59

SPRITE :dirtTile.PNG
POS :(1332,69)
SCALE :0.59

SPRITE :dirtTile.PNG
POS :(1332,106)
SCALE :0.59

SPRITE :dirtTile.PNG
POS :(1332,143)
SCALE :0.59

SPRITE :grassTile.png
POS :(1332,180)
SCALE :0.59

SPRITE :wallTile.png
POS :(1332,217)
SCALE :0.59

SPRITE :wallTile.png
POS :(1332,254)
SCALE :0.59

SPRITE :wallTile.png
POS :(1332,291)
SCALE :0.59

SPRITE :dirtTile.PNG
POS :(1332,328)
SCALE :0.59

SPRITE :wallTile.png
POS :(1332,365)
SCALE :0.59

SPRITE :dirtTile.PNG
POS :(1332,402)
SCALE :0.59

SPRITE :dirtTile.PNG
POS :(1332,439)
SCALE :0.59

SPRITE :dirtTile.PNG
POS :(1332,476)
SCALE :0.59

SPRITE :wallTile.png
POS :(1332,513)
SCALE :0.59

SPRITE :dirtTile.PNG
POS :(1332,550)
SCALE :0.59

SPRITE :dirtTile.PNG
POS :(1332,587)
SCALE :0.59

SPRITE :dirtTile.PNG
POS :(1332,624)
SCALE :0.59

SPRITE :dirtTile.PNG
POS :(1332,661)
SCALE :0.59

SPRITE :dirtTile.PNG
POS :(1332,698)
SCALE :0.59

SPRITE :dirtTile.PNG
POS :(1332,735)
SCALE :0.59

SPRITE :dirtTile.PNG
POS :(1332,772)
SCALE :0.59

SPRITE :dirtTile.PNG
POS :(1332,809)
SCALE :0.59

SPRITE :dirtTile.PNG
POS :(1332,846)
SCALE :0.59

SPRITE :dirtTile.PNG
POS :(1332,883)
SCALE :0.59

SPRITE :dirtTile.PNG
POS :(1332,920)
SCALE :0.59

SPRITE :dirtTile.PNG
POS :(1332,957)
SCALE :0.59

SPRITE :dirtTile.PNG
POS :(1332,994)
SCALE :0.59

SPRITE :dirtTile.PNG
POS :(1332,1031)
SCALE :0.59

SPRITE :dirtTile.PNG
POS :(1332,1068)
SCALE :0.59

SPRITE :dirtTile.PNG
POS :(1369,32)
SCALE :0.59

SPRITE :dirtTile.PNG
POS :(1369,69)
SCALE :0.59

SPRITE :dirtTile.PNG
POS :(1369,106)
SCALE :0.59

SPRITE :dirtTile.PNG
POS :(1369,143)
SCALE :0.59

SPRITE :grassTile.png
POS :(1369,180)
SCALE :0.59

SPRITE :wallTile.png
POS :(1369,217)
SCALE :0.59

SPRITE :wallTile.png
POS :(1369,254)
SCALE :0.59

SPRITE :dirtTile.PNG
POS :(1369,291)
SCALE :0.59

SPRITE :dirtTile.PNG
POS :(1369,328)
SCALE :0.59

SPRITE :wallTile.png
POS :(1369,365)
SCALE :0.59

SPRITE :dirtTile.PNG
POS :(1369,402)
SCALE :0.59

SPRITE :dirtTile.PNG
POS :(1369,439)
SCALE :0.59

SPRITE :dirtTile.PNG
POS :(1369,476)
SCALE :0.59

SPRITE :dirtTile.PNG
POS :(1369,513)
SCALE :0.59

SPRITE :dirtTile.PNG
POS :(1369,550)
SCALE :0.59

SPRITE :dirtTile.PNG
POS :(1369,587)
SCALE :0.59

SPRITE :dirtTile.PNG
POS :(1369,624)
SCALE :0.59

SPRITE :dirtTile.PNG
POS :(1369,661)
SCALE :0.59

SPRITE :dirtTile.PNG
POS :(1369,698)
SCALE :0.59

SPRITE :dirtTile.PNG
POS :(1369,735)
SCALE :0.59

SPRITE :dirtTile.PNG
POS :(1369,772)
SCALE :0.59

SPRITE :dirtTile.PNG
POS :(1369,809)
SCALE :0.59

SPRITE :dirtTile.PNG
POS :(1369,846)
SCALE :0.59

SPRITE :dirtTile.PNG
POS :(1369,883)
SCALE :0.59

SPRITE :dirtTile.PNG
POS :(1369,920)
SCALE :0.59

SPRITE :dirtTile.PNG
POS :(1369,957)
SCALE :0.59

SPRITE :dirtTile.PNG
POS :(1369,994)
SCALE :0.59

SPRITE :dirtTile.PNG
POS :(1369,1031)
SCALE :0.59

SPRITE :dirtTile.PNG
POS :(1369,1068)
SCALE :0.59

SPRITE :dirtTile.PNG
POS :(1406,32)
SCALE :0.59

SPRITE :dirtTile.PNG
POS :(1406,69)
SCALE :0.59

SPRITE :dirtTile.PNG
POS :(1406,106)
SCALE :0.59

SPRITE :dirtTile.PNG
POS :(1406,143)
SCALE :0.59

SPRITE :dirtTile.PNG
POS :(1406,180)
SCALE :0.59

SPRITE :wallTile.png
POS :(1406,217)
SCALE :0.59

SPRITE :wallTile.png
POS :(1406,254)
SCALE :0.59

SPRITE :wallTile.png
POS :(1406,291)
SCALE :0.59

SPRITE :dirtTile.PNG
POS :(1406,328)
SCALE :0.59

SPRITE :wallTile.png
POS :(1406,365)
SCALE :0.59

SPRITE :dirtTile.PNG
POS :(1406,402)
SCALE :0.59

SPRITE :dirtTile.PNG
POS :(1406,439)
SCALE :0.59

SPRITE :dirtTile.PNG
POS :(1406,476)
SCALE :0.59

SPRITE :dirtTile.PNG
POS :(1406,513)
SCALE :0.59

SPRITE :dirtTile.PNG
POS :(1406,550)
SCALE :0.59

SPRITE :dirtTile.PNG
POS :(1406,587)
SCALE :0.59

SPRITE :dirtTile.PNG
POS :(1406,624)
SCALE :0.59

SPRITE :dirtTile.PNG
POS :(1406,661)
SCALE :0.59

SPRITE :dirtTile.PNG
POS :(1406,698)
SCALE :0.59

SPRITE :dirtTile.PNG
POS :(1406,735)
SCALE :0.59

SPRITE :dirtTile.PNG
POS :(1406,772)
SCALE :0.59

SPRITE :dirtTile.PNG
POS :(1406,809)
SCALE :0.59

SPRITE :dirtTile.PNG
POS :(1406,846)
SCALE :0.59

SPRITE :dirtTile.PNG
POS :(1406,883)
SCALE :0.59

SPRITE :dirtTile.PNG
POS :(1406,920)
SCALE :0.59

SPRITE :dirtTile.PNG
POS :(1406,957)
SCALE :0.59

SPRITE :dirtTile.PNG
POS :(1406,994)
SCALE :0.59

SPRITE :dirtTile.PNG
POS :(1406,1031)
SCALE :0.59

SPRITE :dirtTile.PNG
POS :(1406,1068)
SCALE :0.59

SPRITE :dirtTile.PNG
POS :(1443,32)
SCALE :0.59

SPRITE :dirtTile.PNG
POS :(1443,69)
SCALE :0.59

SPRITE :dirtTile.PNG
POS :(1443,106)
SCALE :0.59

SPRITE :dirtTile.PNG
POS :(1443,143)
SCALE :0.59

SPRITE :dirtTile.PNG
POS :(1443,180)
SCALE :0.59

SPRITE :wallTile.png
POS :(1443,217)
SCALE :0.59

SPRITE :wallTile.png
POS :(1443,254)
SCALE :0.59

SPRITE :wallTile.png
POS :(1443,291)
SCALE :0.59

SPRITE :wallTile.png
POS :(1443,328)
SCALE :0.59

SPRITE :dirtTile.PNG
POS :(1443,365)
SCALE :0.59

SPRITE :dirtTile.PNG
POS :(1443,402)
SCALE :0.59

SPRITE :dirtTile.PNG
POS :(1443,439)
SCALE :0.59

SPRITE :dirtTile.PNG
POS :(1443,476)
SCALE :0.59

SPRITE :dirtTile.PNG
POS :(1443,513)
SCALE :0.59

SPRITE :dirtTile.PNG
POS :(1443,550)
SCALE :0.59

SPRITE :dirtTile.PNG
POS :(1443,587)
SCALE :0.59

SPRITE :dirtTile.PNG
POS :(1443,624)
SCALE :0.59

SPRITE :dirtTile.PNG
POS :(1443,661)
SCALE :0.59

SPRITE :dirtTile.PNG
POS :(1443,698)
SCALE :0.59

SPRITE :dirtTile.PNG
POS :(1443,735)
SCALE :0.59

SPRITE :dirtTile.PNG
POS :(1443,772)
SCALE :0.59

SPRITE :dirtTile.PNG
POS :(1443,809)
SCALE :0.59

SPRITE :dirtTile.PNG
POS :(1443,846)
SCALE :0.59

SPRITE :dirtTile.PNG
POS :(1443,883)
SCALE :0.59

SPRITE :dirtTile.PNG
POS :(1443,920)
SCALE :0.59

SPRITE :dirtTile.PNG
POS :(1443,957)
SCALE :0.59

SPRITE :dirtTile.PNG
POS :(1443,994)
SCALE :0.59

SPRITE :dirtTile.PNG
POS :(1443,1031)
SCALE :0.59

SPRITE :dirtTile.PNG
POS :(1443,1068)
SCALE :0.59

SPRITE :dirtTile.PNG
POS :(1480,32)
SCALE :0.59

SPRITE :dirtTile.PNG
POS :(1480,69)
SCALE :0.59

SPRITE :dirtTile.PNG
POS :(1480,106)
SCALE :0.59

SPRITE :dirtTile.PNG
POS :(1480,143)
SCALE :0.59

SPRITE :dirtTile.PNG
POS :(1480,180)
SCALE :0.59

SPRITE :wallTile.png
POS :(1480,217)
SCALE :0.59

SPRITE :wallTile.png
POS :(1480,254)
SCALE :0.59

SPRITE :wallTile.png
POS :(1480,291)
SCALE :0.59

SPRITE :dirtTile.PNG
POS :(1480,328)
SCALE :0.59

SPRITE :dirtTile.PNG
POS :(1480,365)
SCALE :0.59

SPRITE :dirtTile.PNG
POS :(1480,402)
SCALE :0.59

SPRITE :dirtTile.PNG
POS :(1480,439)
SCALE :0.59

SPRITE :dirtTile.PNG
POS :(1480,476)
SCALE :0.59

SPRITE :dirtTile.PNG
POS :(1480,513)
SCALE :0.59

SPRITE :dirtTile.PNG
POS :(1480,550)
SCALE :0.59

SPRITE :dirtTile.PNG
POS :(1480,587)
SCALE :0.59

SPRITE :dirtTile.PNG
POS :(1480,624)
SCALE :0.59

SPRITE :dirtTile.PNG
POS :(1480,661)
SCALE :0.59

SPRITE :dirtTile.PNG
POS :(1480,698)
SCALE :0.59

SPRITE :dirtTile.PNG
POS :(1480,735)
SCALE :0.59

SPRITE :dirtTile.PNG
POS :(1480,772)
SCALE :0.59

SPRITE :dirtTile.PNG
POS :(1480,809)
SCALE :0.59

SPRITE :dirtTile.PNG
POS :(1480,846)
SCALE :0.59

SPRITE :dirtTile.PNG
POS :(1480,883)
SCALE :0.59

SPRITE :dirtTile.PNG
POS :(1480,920)
SCALE :0.59

SPRITE :dirtTile.PNG
POS :(1480,957)
SCALE :0.59

SPRITE :dirtTile.PNG
POS :(1480,994)
SCALE :0.59

SPRITE :dirtTile.PNG
POS :(1480,1031)
SCALE :0.59

SPRITE :dirtTile.PNG
POS :(1480,1068)
SCALE :0.59

SPRITE :dirtTile.PNG
POS :(1517,32)
SCALE :0.59

SPRITE :dirtTile.PNG
POS :(1517,69)
SCALE :0.59

SPRITE :dirtTile.PNG
POS :(1517,106)
SCALE :0.59

SPRITE :dirtTile.PNG
POS :(1517,143)
SCALE :0.59

SPRITE :dirtTile.PNG
POS :(1517,180)
SCALE :0.59

SPRITE :dirtTile.PNG
POS :(1517,217)
SCALE :0.59

SPRITE :dirtTile.PNG
POS :(1517,254)
SCALE :0.59

SPRITE :dirtTile.PNG
POS :(1517,291)
SCALE :0.59

SPRITE :dirtTile.PNG
POS :(1517,328)
SCALE :0.59

SPRITE :dirtTile.PNG
POS :(1517,365)
SCALE :0.59

SPRITE :dirtTile.PNG
POS :(1517,402)
SCALE :0.59

SPRITE :dirtTile.PNG
POS :(1517,439)
SCALE :0.59

SPRITE :dirtTile.PNG
POS :(1517,476)
SCALE :0.59

SPRITE :dirtTile.PNG
POS :(1517,513)
SCALE :0.59

SPRITE :dirtTile.PNG
POS :(1517,550)
SCALE :0.59

SPRITE :dirtTile.PNG
POS :(1517,587)
SCALE :0.59

SPRITE :dirtTile.PNG
POS :(1517,624)
SCALE :0.59

SPRITE :dirtTile.PNG
POS :(1517,661)
SCALE :0.59

SPRITE :dirtTile.PNG
POS :(1517,698)
SCALE :0.59

SPRITE :dirtTile.PNG
POS :(1517,735)
SCALE :0.59

SPRITE :dirtTile.PNG
POS :(1517,772)
SCALE :0.59

SPRITE :dirtTile.PNG
POS :(1517,809)
SCALE :0.59

SPRITE :dirtTile.PNG
POS :(1517,846)
SCALE :0.59

SPRITE :dirtTile.PNG
POS :(1517,883)
SCALE :0.59

SPRITE :dirtTile.PNG
POS :(1517,920)
SCALE :0.59

SPRITE :dirtTile.PNG
POS :(1517,957)
SCALE :0.59

SPRITE :dirtTile.PNG
POS :(1517,994)
SCALE :0.59

SPRITE :dirtTile.PNG
POS :(1517,1031)
SCALE :0.59

SPRITE :dirtTile.PNG
POS :(1517,1068)
SCALE :0.59

SPRITE :dirtTile.PNG
POS :(1554,32)
SCALE :0.59

SPRITE :dirtTile.PNG
POS :(1554,69)
SCALE :0.59

SPRITE :dirtTile.PNG
POS :(1554,106)
SCALE :0.59

SPRITE :dirtTile.PNG
POS :(1554,143)
SCALE :0.59

SPRITE :dirtTile.PNG
POS :(1554,180)
SCALE :0.59

SPRITE :dirtTile.PNG
POS :(1554,217)
SCALE :0.59

SPRITE :dirtTile.PNG
POS :(1554,254)
SCALE :0.59

SPRITE :dirtTile.PNG
POS :(1554,291)
SCALE :0.59

SPRITE :dirtTile.PNG
POS :(1554,328)
SCALE :0.59

SPRITE :dirtTile.PNG
POS :(1554,365)
SCALE :0.59

SPRITE :dirtTile.PNG
POS :(1554,402)
SCALE :0.59

SPRITE :dirtTile.PNG
POS :(1554,439)
SCALE :0.59

SPRITE :dirtTile.PNG
POS :(1554,476)
SCALE :0.59

SPRITE :dirtTile.PNG
POS :(1554,513)
SCALE :0.59

SPRITE :dirtTile.PNG
POS :(1554,550)
SCALE :0.59

SPRITE :dirtTile.PNG
POS :(1554,587)
SCALE :0.59

SPRITE :dirtTile.PNG
POS :(1554,624)
SCALE :0.59

SPRITE :dirtTile.PNG
POS :(1554,661)
SCALE :0.59

SPRITE :dirtTile.PNG
POS :(1554,698)
SCALE :0.59

SPRITE :dirtTile.PNG
POS :(1554,735)
SCALE :0.59

SPRITE :dirtTile.PNG
POS :(1554,772)
SCALE :0.59

SPRITE :dirtTile.PNG
POS :(1554,809)
SCALE :0.59

SPRITE :dirtTile.PNG
POS :(1554,846)
SCALE :0.59

SPRITE :dirtTile.PNG
POS :(1554,883)
SCALE :0.59

SPRITE :dirtTile.PNG
POS :(1554,920)
SCALE :0.59

SPRITE :dirtTile.PNG
POS :(1554,957)
SCALE :0.59

SPRITE :dirtTile.PNG
POS :(1554,994)
SCALE :0.59

SPRITE :dirtTile.PNG
POS :(1554,1031)
SCALE :0.59

SPRITE :dirtTile.PNG
POS :(1554,1068)
SCALE :0.59

SPRITE :dirtTile.PNG
POS :(1591,32)
SCALE :0.59

SPRITE :dirtTile.PNG
POS :(1591,69)
SCALE :0.59

SPRITE :dirtTile.PNG
POS :(1591,106)
SCALE :0.59

SPRITE :dirtTile.PNG
POS :(1591,143)
SCALE :0.59

SPRITE :dirtTile.PNG
POS :(1591,180)
SCALE :0.59

SPRITE :dirtTile.PNG
POS :(1591,217)
SCALE :0.59

SPRITE :dirtTile.PNG
POS :(1591,254)
SCALE :0.59

SPRITE :dirtTile.PNG
POS :(1591,291)
SCALE :0.59

SPRITE :dirtTile.PNG
POS :(1591,328)
SCALE :0.59

SPRITE :dirtTile.PNG
POS :(1591,365)
SCALE :0.59

SPRITE :dirtTile.PNG
POS :(1591,402)
SCALE :0.59

SPRITE :dirtTile.PNG
POS :(1591,439)
SCALE :0.59

SPRITE :dirtTile.PNG
POS :(1591,476)
SCALE :0.59

SPRITE :dirtTile.PNG
POS :(1591,513)
SCALE :0.59

SPRITE :dirtTile.PNG
POS :(1591,550)
SCALE :0.59

SPRITE :dirtTile.PNG
POS :(1591,587)
SCALE :0.59

SPRITE :dirtTile.PNG
POS :(1591,624)
SCALE :0.59

SPRITE :dirtTile.PNG
POS :(1591,661)
SCALE :0.59

SPRITE :dirtTile.PNG
POS :(1591,698)
SCALE :0.59

SPRITE :dirtTile.PNG
POS :(1591,735)
SCALE :0.59

SPRITE :dirtTile.PNG
POS :(1591,772)
SCALE :0.59

SPRITE :dirtTile.PNG
POS :(1591,809)
SCALE :0.59

SPRITE :dirtTile.PNG
POS :(1591,846)
SCALE :0.59

SPRITE :dirtTile.PNG
POS :(1591,883)
SCALE :0.59

SPRITE :dirtTile.PNG
POS :(1591,920)
SCALE :0.59

SPRITE :dirtTile.PNG
POS :(1591,957)
SCALE :0.59

SPRITE :dirtTile.PNG
POS :(1591,994)
SCALE :0.59

SPRITE :dirtTile.PNG
POS :(1591,1031)
SCALE :0.59

SPRITE :dirtTile.PNG
POS :(1591,1068)
SCALE :0.59

SPRITE :dirtTile.PNG
POS :(1628,32)
SCALE :0.59

SPRITE :dirtTile.PNG
POS :(1628,69)
SCALE :0.59

SPRITE :dirtTile.PNG
POS :(1628,106)
SCALE :0.59

SPRITE :dirtTile.PNG
POS :(1628,143)
SCALE :0.59

SPRITE :dirtTile.PNG
POS :(1628,180)
SCALE :0.59

SPRITE :dirtTile.PNG
POS :(1628,217)
SCALE :0.59

SPRITE :dirtTile.PNG
POS :(1628,254)
SCALE :0.59

SPRITE :dirtTile.PNG
POS :(1628,291)
SCALE :0.59

SPRITE :dirtTile.PNG
POS :(1628,328)
SCALE :0.59

SPRITE :dirtTile.PNG
POS :(1628,365)
SCALE :0.59

SPRITE :dirtTile.PNG
POS :(1628,402)
SCALE :0.59

SPRITE :dirtTile.PNG
POS :(1628,439)
SCALE :0.59

SPRITE :dirtTile.PNG
POS :(1628,476)
SCALE :0.59

SPRITE :dirtTile.PNG
POS :(1628,513)
SCALE :0.59

SPRITE :dirtTile.PNG
POS :(1628,550)
SCALE :0.59

SPRITE :dirtTile.PNG
POS :(1628,587)
SCALE :0.59

SPRITE :dirtTile.PNG
POS :(1628,624)
SCALE :0.59

SPRITE :dirtTile.PNG
POS :(1628,661)
SCALE :0.59

SPRITE :dirtTile.PNG
POS :(1628,698)
SCALE :0.59

SPRITE :dirtTile.PNG
POS :(1628,735)
SCALE :0.59

SPRITE :dirtTile.PNG
POS :(1628,772)
SCALE :0.59

SPRITE :dirtTile.PNG
POS :(1628,809)
SCALE :0.59

SPRITE :dirtTile.PNG
POS :(1628,846)
SCALE :0.59

SPRITE :dirtTile.PNG
POS :(1628,883)
SCALE :0.59

SPRITE :dirtTile.PNG
POS :(1628,920)
SCALE :0.59

SPRITE :dirtTile.PNG
POS :(1628,957)
SCALE :0.59

SPRITE :dirtTile.PNG
POS :(1628,994)
SCALE :0.59

SPRITE :dirtTile.PNG
POS :(1628,1031)
SCALE :0.59

SPRITE :dirtTile.PNG
POS :(1628,1068)
SCALE :0.59

SPRITE :dirtTile.PNG
POS :(1665,32)
SCALE :0.59

SPRITE :dirtTile.PNG
POS :(1665,69)
SCALE :0.59

SPRITE :dirtTile.PNG
POS :(1665,106)
SCALE :0.59

SPRITE :dirtTile.PNG
POS :(1665,143)
SCALE :0.59

SPRITE :dirtTile.PNG
POS :(1665,180)
SCALE :0.59

SPRITE :dirtTile.PNG
POS :(1665,217)
SCALE :0.59

SPRITE :dirtTile.PNG
POS :(1665,254)
SCALE :0.59

SPRITE :dirtTile.PNG
POS :(1665,291)
SCALE :0.59

SPRITE :dirtTile.PNG
POS :(1665,328)
SCALE :0.59

SPRITE :dirtTile.PNG
POS :(1665,365)
SCALE :0.59

SPRITE :dirtTile.PNG
POS :(1665,402)
SCALE :0.59

SPRITE :dirtTile.PNG
POS :(1665,439)
SCALE :0.59

SPRITE :dirtTile.PNG
POS :(1665,476)
SCALE :0.59

SPRITE :dirtTile.PNG
POS :(1665,513)
SCALE :0.59

SPRITE :dirtTile.PNG
POS :(1665,550)
SCALE :0.59

SPRITE :dirtTile.PNG
POS :(1665,587)
SCALE :0.59

SPRITE :dirtTile.PNG
POS :(1665,624)
SCALE :0.59

SPRITE :dirtTile.PNG
POS :(1665,661)
SCALE :0.59

SPRITE :dirtTile.PNG
POS :(1665,698)
SCALE :0.59

SPRITE :dirtTile.PNG
POS :(1665,735)
SCALE :0.59

SPRITE :dirtTile.PNG
POS :(1665,772)
SCALE :0.59

SPRITE :dirtTile.PNG
POS :(1665,809)
SCALE :0.59

SPRITE :dirtTile.PNG
POS :(1665,846)
SCALE :0.59

SPRITE :dirtTile.PNG
POS :(1665,883)
SCALE :0.59

SPRITE :dirtTile.PNG
POS :(1665,920)
SCALE :0.59

SPRITE :dirtTile.PNG
POS :(1665,957)
SCALE :0.59

SPRITE :dirtTile.PNG
POS :(1665,994)
SCALE :0.59

SPRITE :dirtTile.PNG
POS :(1665,1031)
SCALE :0.59

SPRITE :dirtTile.PNG
POS :(1665,1068)
SCALE :0.59

SPRITE :dirtTile.PNG
POS :(1702,32)
SCALE :0.59

SPRITE :dirtTile.PNG
POS :(1702,69)
SCALE :0.59

SPRITE :dirtTile.PNG
POS :(1702,106)
SCALE :0.59

SPRITE :dirtTile.PNG
POS :(1702,143)
SCALE :0.59

SPRITE :dirtTile.PNG
POS :(1702,180)
SCALE :0.59

SPRITE :dirtTile.PNG
POS :(1702,217)
SCALE :0.59

SPRITE :dirtTile.PNG
POS :(1702,254)
SCALE :0.59

SPRITE :dirtTile.PNG
POS :(1702,291)
SCALE :0.59

SPRITE :dirtTile.PNG
POS :(1702,328)
SCALE :0.59

SPRITE :dirtTile.PNG
POS :(1702,365)
SCALE :0.59

SPRITE :dirtTile.PNG
POS :(1702,402)
SCALE :0.59

SPRITE :dirtTile.PNG
POS :(1702,439)
SCALE :0.59

SPRITE :dirtTile.PNG
POS :(1702,476)
SCALE :0.59

SPRITE :dirtTile.PNG
POS :(1702,513)
SCALE :0.59

SPRITE :dirtTile.PNG
POS :(1702,550)
SCALE :0.59

SPRITE :dirtTile.PNG
POS :(1702,587)
SCALE :0.59

SPRITE :dirtTile.PNG
POS :(1702,624)
SCALE :0.59

SPRITE :dirtTile.PNG
POS :(1702,661)
SCALE :0.59

SPRITE :dirtTile.PNG
POS :(1702,698)
SCALE :0.59

SPRITE :dirtTile.PNG
POS :(1702,735)
SCALE :0.59

SPRITE :dirtTile.PNG
POS :(1702,772)
SCALE :0.59

SPRITE :dirtTile.PNG
POS :(1702,809)
SCALE :0.59

SPRITE :dirtTile.PNG
POS :(1702,846)
SCALE :0.59

SPRITE :dirtTile.PNG
POS :(1702,883)
SCALE :0.59

SPRITE :dirtTile.PNG
POS :(1702,920)
SCALE :0.59

SPRITE :dirtTile.PNG
POS :(1702,957)
SCALE :0.59

SPRITE :dirtTile.PNG
POS :(1702,994)
SCALE :0.59

SPRITE :dirtTile.PNG
POS :(1702,1031)
SCALE :0.59

SPRITE :dirtTile.PNG
POS :(1702,1068)
SCALE :0.59

SPRITE :dirtTile.PNG
POS :(1739,32)
SCALE :0.59

SPRITE :dirtTile.PNG
POS :(1739,69)
SCALE :0.59

SPRITE :dirtTile.PNG
POS :(1739,106)
SCALE :0.59

SPRITE :dirtTile.PNG
POS :(1739,143)
SCALE :0.59

SPRITE :dirtTile.PNG
POS :(1739,180)
SCALE :0.59

SPRITE :dirtTile.PNG
POS :(1739,217)
SCALE :0.59

SPRITE :dirtTile.PNG
POS :(1739,254)
SCALE :0.59

SPRITE :dirtTile.PNG
POS :(1739,291)
SCALE :0.59

SPRITE :dirtTile.PNG
POS :(1739,328)
SCALE :0.59

SPRITE :dirtTile.PNG
POS :(1739,365)
SCALE :0.59

SPRITE :dirtTile.PNG
POS :(1739,402)
SCALE :0.59

SPRITE :dirtTile.PNG
POS :(1739,439)
SCALE :0.59

SPRITE :dirtTile.PNG
POS :(1739,476)
SCALE :0.59

SPRITE :dirtTile.PNG
POS :(1739,513)
SCALE :0.59

SPRITE :dirtTile.PNG
POS :(1739,550)
SCALE :0.59

SPRITE :dirtTile.PNG
POS :(1739,587)
SCALE :0.59

SPRITE :dirtTile.PNG
POS :(1739,624)
SCALE :0.59

SPRITE :dirtTile.PNG
POS :(1739,661)
SCALE :0.59

SPRITE :dirtTile.PNG
POS :(1739,698)
SCALE :0.59

SPRITE :dirtTile.PNG
POS :(1739,735)
SCALE :0.59

SPRITE :dirtTile.PNG
POS :(1739,772)
SCALE :0.59

SPRITE :dirtTile.PNG
POS :(1739,809)
SCALE :0.59

SPRITE :dirtTile.PNG
POS :(1739,846)
SCALE :0.59

SPRITE :dirtTile.PNG
POS :(1739,883)
SCALE :0.59

SPRITE :dirtTile.PNG
POS :(1739,920)
SCALE :0.59

SPRITE :dirtTile.PNG
POS :(1739,957)
SCALE :0.59

SPRITE :dirtTile.PNG
POS :(1739,994)
SCALE :0.59

SPRITE :dirtTile.PNG
POS :(1739,1031)
SCALE :0.59

SPRITE :dirtTile.PNG
POS :(1739,1068)
SCALE :0.59

SPRITE :dirtTile.PNG
POS :(1776,32)
SCALE :0.59

SPRITE :dirtTile.PNG
POS :(1776,69)
SCALE :0.59

SPRITE :dirtTile.PNG
POS :(1776,106)
SCALE :0.59

SPRITE :dirtTile.PNG
POS :(1776,143)
SCALE :0.59

SPRITE :dirtTile.PNG
POS :(1776,180)
SCALE :0.59

SPRITE :dirtTile.PNG
POS :(1776,217)
SCALE :0.59

SPRITE :dirtTile.PNG
POS :(1776,254)
SCALE :0.59

SPRITE :dirtTile.PNG
POS :(1776,291)
SCALE :0.59

SPRITE :dirtTile.PNG
POS :(1776,328)
SCALE :0.59

SPRITE :dirtTile.PNG
POS :(1776,365)
SCALE :0.59

SPRITE :dirtTile.PNG
POS :(1776,402)
SCALE :0.59

SPRITE :dirtTile.PNG
POS :(1776,439)
SCALE :0.59

SPRITE :dirtTile.PNG
POS :(1776,476)
SCALE :0.59

SPRITE :dirtTile.PNG
POS :(1776,513)
SCALE :0.59

SPRITE :dirtTile.PNG
POS :(1776,550)
SCALE :0.59

SPRITE :dirtTile.PNG
POS :(1776,587)
SCALE :0.59

SPRITE :dirtTile.PNG
POS :(1776,624)
SCALE :0.59

SPRITE :dirtTile.PNG
POS :(1776,661)
SCALE :0.59

SPRITE :dirtTile.PNG
POS :(1776,698)
SCALE :0.59

SPRITE :dirtTile.PNG
POS :(1776,735)
SCALE :0.59

SPRITE :dirtTile.PNG
POS :(1776,772)
SCALE :0.59

SPRITE :dirtTile.PNG
POS :(1776,809)
SCALE :0.59

SPRITE :dirtTile.PNG
POS :(1776,846)
SCALE :0.59

SPRITE :dirtTile.PNG
POS :(1776,883)
SCALE :0.59

SPRITE :dirtTile.PNG
POS :(1776,920)
SCALE :0.59

SPRITE :dirtTile.PNG
POS :(1776,957)
SCALE :0.59

SPRITE :dirtTile.PNG
POS :(1776,994)
SCALE :0.59

SPRITE :dirtTile.PNG
POS :(1776,1031)
SCALE :0.59

SPRITE :dirtTile.PNG
POS :(1776,1068)
SCALE :0.59

SPRITE :dirtTile.PNG
POS :(1813,32)
SCALE :0.59

SPRITE :dirtTile.PNG
POS :(1813,69)
SCALE :0.59

SPRITE :dirtTile.PNG
POS :(1813,106)
SCALE :0.59

SPRITE :dirtTile.PNG
POS :(1813,143)
SCALE :0.59

SPRITE :dirtTile.PNG
POS :(1813,180)
SCALE :0.59

SPRITE :dirtTile.PNG
POS :(1813,217)
SCALE :0.59

SPRITE :dirtTile.PNG
POS :(1813,254)
SCALE :0.59

SPRITE :dirtTile.PNG
POS :(1813,291)
SCALE :0.59

SPRITE :dirtTile.PNG
POS :(1813,328)
SCALE :0.59

SPRITE :dirtTile.PNG
POS :(1813,365)
SCALE :0.59

SPRITE :dirtTile.PNG
POS :(1813,402)
SCALE :0.59

SPRITE :dirtTile.PNG
POS :(1813,439)
SCALE :0.59

SPRITE :dirtTile.PNG
POS :(1813,476)
SCALE :0.59

SPRITE :dirtTile.PNG
POS :(1813,513)
SCALE :0.59

SPRITE :dirtTile.PNG
POS :(1813,550)
SCALE :0.59

SPRITE :dirtTile.PNG
POS :(1813,587)
SCALE :0.59

SPRITE :dirtTile.PNG
POS :(1813,624)
SCALE :0.59

SPRITE :dirtTile.PNG
POS :(1813,661)
SCALE :0.59

SPRITE :dirtTile.PNG
POS :(1813,698)
SCALE :0.59

SPRITE :dirtTile.PNG
POS :(1813,735)
SCALE :0.59

SPRITE :dirtTile.PNG
POS :(1813,772)
SCALE :0.59

SPRITE :dirtTile.PNG
POS :(1813,809)
SCALE :0.59

SPRITE :dirtTile.PNG
POS :(1813,846)
SCALE :0.59

SPRITE :dirtTile.PNG
POS :(1813,883)
SCALE :0.59

SPRITE :dirtTile.PNG
POS :(1813,920)
SCALE :0.59

SPRITE :dirtTile.PNG
POS :(1813,957)
SCALE :0.59

SPRITE :dirtTile.PNG
POS :(1813,994)
SCALE :0.59

SPRITE :dirtTile.PNG
POS :(1813,1031)
SCALE :0.59

SPRITE :dirtTile.PNG
POS :(1813,1068)
SCALE :0.59

SPRITE :dirtTile.PNG
POS :(1850,32)
SCALE :0.59

SPRITE :dirtTile.PNG
POS :(1850,69)
SCALE :0.59

SPRITE :dirtTile.PNG
POS :(1850,106)
SCALE :0.59

SPRITE :dirtTile.PNG
POS :(1850,143)
SCALE :0.59

SPRITE :dirtTile.PNG
POS :(1850,180)
SCALE :0.59

SPRITE :dirtTile.PNG
POS :(1850,217)
SCALE :0.59

SPRITE :dirtTile.PNG
POS :(1850,254)
SCALE :0.59

SPRITE :dirtTile.PNG
POS :(1850,291)
SCALE :0.59

SPRITE :dirtTile.PNG
POS :(1850,328)
SCALE :0.59

SPRITE :dirtTile.PNG
POS :(1850,365)
SCALE :0.59

SPRITE :dirtTile.PNG
POS :(1850,402)
SCALE :0.59

SPRITE :dirtTile.PNG
POS :(1850,439)
SCALE :0.59

SPRITE :dirtTile.PNG
POS :(1850,476)
SCALE :0.59

SPRITE :dirtTile.PNG
POS :(1850,513)
SCALE :0.59

SPRITE :dirtTile.PNG
POS :(1850,550)
SCALE :0.59

SPRITE :dirtTile.PNG
POS :(1850,587)
SCALE :0.59

SPRITE :dirtTile.PNG
POS :(1850,624)
SCALE :0.59

SPRITE :dirtTile.PNG
POS :(1850,661)
SCALE :0.59

SPRITE :dirtTile.PNG
POS :(1850,698)
SCALE :0.59

SPRITE :dirtTile.PNG
POS :(1850,735)
SCALE :0.59

SPRITE :dirtTile.PNG
POS :(1850,772)
SCALE :0.59

SPRITE :dirtTile.PNG
POS :(1850,809)
SCALE :0.59

SPRITE :dirtTile.PNG
POS :(1850,846)
SCALE :0.59

SPRITE :dirtTile.PNG
POS :(1850,883)
SCALE :0.59

SPRITE :dirtTile.PNG
POS :(1850,920)
SCALE :0.59

SPRITE :dirtTile.PNG
POS :(1850,957)
SCALE :0.59

SPRITE :dirtTile.PNG
POS :(1850,994)
SCALE :0.59

SPRITE :dirtTile.PNG
POS :(1850,1031)
SCALE :0.59

SPRITE :dirtTile.PNG
POS :(1850,1068)
SCALE :0.59

SPRITE :dirtTile.PNG
POS :(1887,32)
SCALE :0.59

SPRITE :dirtTile.PNG
POS :(1887,69)
SCALE :0.59

SPRITE :dirtTile.PNG
POS :(1887,106)
SCALE :0.59

SPRITE :dirtTile.PNG
POS :(1887,143)
SCALE :0.59

SPRITE :dirtTile.PNG
POS :(1887,180)
SCALE :0.59

SPRITE :dirtTile.PNG
POS :(1887,217)
SCALE :0.59

SPRITE :dirtTile.PNG
POS :(1887,254)
SCALE :0.59

SPRITE :dirtTile.PNG
POS :(1887,291)
SCALE :0.59

SPRITE :dirtTile.PNG
POS :(1887,328)
SCALE :0.59

SPRITE :dirtTile.PNG
POS :(1887,365)
SCALE :0.59

SPRITE :dirtTile.PNG
POS :(1887,402)
SCALE :0.59

SPRITE :dirtTile.PNG
POS :(1887,439)
SCALE :0.59

SPRITE :dirtTile.PNG
POS :(1887,476)
SCALE :0.59

SPRITE :dirtTile.PNG
POS :(1887,513)
SCALE :0.59

SPRITE :dirtTile.PNG
POS :(1887,550)
SCALE :0.59

SPRITE :dirtTile.PNG
POS :(1887,587)
SCALE :0.59

SPRITE :dirtTile.PNG
POS :(1887,624)
SCALE :0.59

SPRITE :dirtTile.PNG
POS :(1887,661)
SCALE :0.59

SPRITE :dirtTile.PNG
POS :(1887,698)
SCALE :0.59

SPRITE :dirtTile.PNG
POS :(1887,735)
SCALE :0.59

SPRITE :dirtTile.PNG
POS :(1887,772)
SCALE :0.59

SPRITE :dirtTile.PNG
POS :(1887,809)
SCALE :0.59

SPRITE :dirtTile.PNG
POS :(1887,846)
SCALE :0.59

SPRITE :dirtTile.PNG
POS :(1887,883)
SCALE :0.59

SPRITE :dirtTile.PNG
POS :(1887,920)
SCALE :0.59

SPRITE :dirtTile.PNG
POS :(1887,957)
SCALE :0.59

SPRITE :dirtTile.PNG
POS :(1887,994)
SCALE :0.59

SPRITE :dirtTile.PNG
POS :(1887,1031)
SCALE :0.59

SPRITE :dirtTile.PNG
POS :(1887,1068)
SCALE :0.59

