^D:\FINAL YEAR WORK\GAME ENGINE\STUDIOENGINE\STUDIOENGINE\X64\RELEASE\STUDIOENGINE.OBJ
/OUT:"D:\FINAL YEAR WORK\GAME ENGINE\STUDIOENGINE\X64\RELEASE\STUDIOENGINE.EXE" /INCREMENTAL:NO /NOLOGO /LIBPATH:"D:\FINAL YEAR WORK\GAME ENGINE\STUDIOENGINE\\SFML-2.5.1\LIB" "SFML-GRAPHICS.LIB" "SFML-WINDOW.LIB" "SFML-SYSTEM.LIB" "SFML-AUDIO.LIB" KERNEL32.LIB USER32.LIB GDI32.LIB WINSPOOL.LIB COMDLG32.LIB ADVAPI32.LIB SHELL32.LIB OLE32.LIB OLEAUT32.LIB UUID.LIB ODBC32.LIB ODBCCP32.LIB /MANIFEST /MANIFESTUAC:"level='asInvoker' uiAccess='false'" /manifest:embed /DEBUG /PDB:"D:\FINAL YEAR WORK\GAME ENGINE\STUDIOENGINE\X64\RELEASE\STUDIOENGINE.PDB" /SUBSYSTEM:CONSOLE /OPT:REF /OPT:ICF /LTCG:incremental /TLBID:1 /DYNAMICBASE /NXCOMPAT /IMPLIB:"D:\FINAL YEAR WORK\GAME ENGINE\STUDIOENGINE\X64\RELEASE\STUDIOENGINE.LIB" /MACHINE:X64 X64\RELEASE\STUDIOENGINE.OBJ
^D:\FINAL YEAR WORK\STUDIO SIM\STUDIOENGINE\STUDIOENGINE\X64\RELEASE\RENDERER.OBJ|D:\FINAL YEAR WORK\STUDIO SIM\STUDIOENGINE\STUDIOENGINE\X64\RELEASE\SPRITE.OBJ|D:\FINAL YEAR WORK\STUDIO SIM\STUDIOENGINE\STUDIOENGINE\X64\RELEASE\SPRITEMANAGER.OBJ|D:\FINAL YEAR WORK\STUDIO SIM\STUDIOENGINE\STUDIOENGINE\X64\RELEASE\STUDIOENGINE.OBJ
/OUT:"D:\FINAL YEAR WORK\STUDIO SIM\STUDIOENGINE\X64\RELEASE\STUDIOENGINE.EXE" /INCREMENTAL:NO /NOLOGO /LIBPATH:"D:\FINAL YEAR WORK\STUDIO SIM\STUDIOENGINE\\SFML-2.5.1\LIB" "SFML-GRAPHICS.LIB" "SFML-WINDOW.LIB" "SFML-SYSTEM.LIB" "SFML-AUDIO.LIB" KERNEL32.LIB USER32.LIB GDI32.LIB WINSPOOL.LIB COMDLG32.LIB ADVAPI32.LIB SHELL32.LIB OLE32.LIB OLEAUT32.LIB UUID.LIB ODBC32.LIB ODBCCP32.LIB /MANIFEST /MANIFESTUAC:"level='asInvoker' uiAccess='false'" /manifest:embed /DEBUG /PDB:"D:\FINAL YEAR WORK\STUDIO SIM\STUDIOENGINE\X64\RELEASE\STUDIOENGINE.PDB" /SUBSYSTEM:CONSOLE /OPT:REF /OPT:ICF /LTCG:incremental /TLBID:1 /DYNAMICBASE /NXCOMPAT /IMPLIB:"D:\FINAL YEAR WORK\STUDIO SIM\STUDIOENGINE\X64\RELEASE\STUDIOENGINE.LIB" /MACHINE:X64 X64\RELEASE\RENDERER.OBJ
X64\RELEASE\SPRITE.OBJ
X64\RELEASE\SPRITEMANAGER.OBJ
X64\RELEASE\STUDIOENGINE.OBJ
^D:\FINAL YEAR WORK\JACKS SOURCETREE\STUDIOENGINE\STUDIOENGINE\X64\RELEASE\BUTTON.OBJ|D:\FINAL YEAR WORK\JACKS SOURCETREE\STUDIOENGINE\STUDIOENGINE\X64\RELEASE\CHARATER.OBJ|D:\FINAL YEAR WORK\JACKS SOURCETREE\STUDIOENGINE\STUDIOENGINE\X64\RELEASE\DROPLIST.OBJ|D:\FINAL YEAR WORK\JACKS SOURCETREE\STUDIOENGINE\STUDIOENGINE\X64\RELEASE\ENGINEMANAGE.OBJ|D:\FINAL YEAR WORK\JACKS SOURCETREE\STUDIOENGINE\STUDIOENGINE\X64\RELEASE\ENTITY.OBJ|D:\FINAL YEAR WORK\JACKS SOURCETREE\STUDIOENGINE\STUDIOENGINE\X64\RELEASE\MENUS.OBJ|D:\FINAL YEAR WORK\JACKS SOURCETREE\STUDIOENGINE\STUDIOENGINE\X64\RELEASE\NPC.OBJ|D:\FINAL YEAR WORK\JACKS SOURCETREE\STUDIOENGINE\STUDIOENGINE\X64\RELEASE\PLAYER.OBJ|D:\FINAL YEAR WORK\JACKS SOURCETREE\STUDIOENGINE\STUDIOENGINE\X64\RELEASE\RENDERER.OBJ|D:\FINAL YEAR WORK\JACKS SOURCETREE\STUDIOENGINE\STUDIOENGINE\X64\RELEASE\SPRITE.OBJ|D:\FINAL YEAR WORK\JACKS SOURCETREE\STUDIOENGINE\STUDIOENGINE\X64\RELEASE\SPRITEMANAGER.OBJ|D:\FINAL YEAR WORK\JACKS SOURCETREE\STUDIOENGINE\STUDIOENGINE\X64\RELEASE\STUDIOENGINE.OBJ
/OUT:"D:\FINAL YEAR WORK\JACKS SOURCETREE\STUDIOENGINE\X64\RELEASE\STUDIOENGINE.EXE" /INCREMENTAL:NO /NOLOGO /LIBPATH:"D:\FINAL YEAR WORK\JACKS SOURCETREE\STUDIOENGINE\\SFML-2.5.1\LIB" "SFML-GRAPHICS.LIB" "SFML-WINDOW.LIB" "SFML-SYSTEM.LIB" "SFML-AUDIO.LIB" KERNEL32.LIB USER32.LIB GDI32.LIB WINSPOOL.LIB COMDLG32.LIB ADVAPI32.LIB SHELL32.LIB OLE32.LIB OLEAUT32.LIB UUID.LIB ODBC32.LIB ODBCCP32.LIB /MANIFEST /MANIFESTUAC:"level='asInvoker' uiAccess='false'" /manifest:embed /DEBUG /PDB:"D:\FINAL YEAR WORK\JACKS SOURCETREE\STUDIOENGINE\X64\RELEASE\STUDIOENGINE.PDB" /SUBSYSTEM:CONSOLE /OPT:REF /OPT:ICF /LTCG:incremental /TLBID:1 /DYNAMICBASE /NXCOMPAT /IMPLIB:"D:\FINAL YEAR WORK\JACKS SOURCETREE\STUDIOENGINE\X64\RELEASE\STUDIOENGINE.LIB" /MACHINE:X64 X64\RELEASE\BUTTON.OBJ
X64\RELEASE\CHARATER.OBJ
X64\RELEASE\DROPLIST.OBJ
X64\RELEASE\ENGINEMANAGE.OBJ
X64\RELEASE\ENTITY.OBJ
X64\RELEASE\MENUS.OBJ
X64\RELEASE\NPC.OBJ
X64\RELEASE\PLAYER.OBJ
X64\RELEASE\RENDERER.OBJ
X64\RELEASE\SPRITE.OBJ
X64\RELEASE\SPRITEMANAGER.OBJ
X64\RELEASE\STUDIOENGINE.OBJ
